Lab4/112550097/112550097/waveform.vcd
$version Generated by VerilatedVcd $end
$timescale 1s $end

 $scope module TOP $end
  $var wire  1 9! clk $end
  $var wire 32 ;! r[0] [31:0] $end
  $var wire 32 E! r[10] [31:0] $end
  $var wire 32 F! r[11] [31:0] $end
  $var wire 32 G! r[12] [31:0] $end
  $var wire 32 H! r[13] [31:0] $end
  $var wire 32 I! r[14] [31:0] $end
  $var wire 32 J! r[15] [31:0] $end
  $var wire 32 K! r[16] [31:0] $end
  $var wire 32 L! r[17] [31:0] $end
  $var wire 32 M! r[18] [31:0] $end
  $var wire 32 N! r[19] [31:0] $end
  $var wire 32 <! r[1] [31:0] $end
  $var wire 32 O! r[20] [31:0] $end
  $var wire 32 P! r[21] [31:0] $end
  $var wire 32 Q! r[22] [31:0] $end
  $var wire 32 R! r[23] [31:0] $end
  $var wire 32 S! r[24] [31:0] $end
  $var wire 32 T! r[25] [31:0] $end
  $var wire 32 U! r[26] [31:0] $end
  $var wire 32 V! r[27] [31:0] $end
  $var wire 32 W! r[28] [31:0] $end
  $var wire 32 X! r[29] [31:0] $end
  $var wire 32 =! r[2] [31:0] $end
  $var wire 32 Y! r[30] [31:0] $end
  $var wire 32 Z! r[31] [31:0] $end
  $var wire 32 >! r[3] [31:0] $end
  $var wire 32 ?! r[4] [31:0] $end
  $var wire 32 @! r[5] [31:0] $end
  $var wire 32 A! r[6] [31:0] $end
  $var wire 32 B! r[7] [31:0] $end
  $var wire 32 C! r[8] [31:0] $end
  $var wire 32 D! r[9] [31:0] $end
  $var wire  1 :! start $end
  $scope module PipelineCPU $end
   $var wire  4 { ALUCtl [3:0] $end
   $var wire  2 q ALUOp_ex [1:0] $end
   $var wire  2 d ALUOp_id [1:0] $end
   $var wire 32 | ALUOut_ex [31:0] $end
   $var wire 32 %! ALUOut_mem [31:0] $end
   $var wire 32 5 ALUOut_wb [31:0] $end
   $var wire  1 l ALUSrc_ex $end
   $var wire  1 a ALUSrc_id $end
   $var wire  1 6! BrEq $end
   $var wire  1 7! BrLT $end
   $var wire  2 f Br_J_Sel [1:0] $end
   $var wire  2 0! Flush_HD [1:0] $end
   $var wire  2 2! PCSel_id [1:0] $end
   $var wire  2 8! PC_sel_final [1:0] $end
   $var wire  2 c! PC_sel_temp [1:0] $end
   $var wire  1 e PCorR1 $end
   $var wire 32 s RS1E_data [31:0] $end
   $var wire 32 t RS2E_data [31:0] $end
   $var wire  1 ]! RePC $end
   $var wire 32 b! adder_2_src [31:0] $end
   $var wire  1 9! clk $end
   $var wire  2 u ex_ForwardA [1:0] $end
   $var wire  2 v ex_ForwardB [1:0] $end
   $var wire  3 n funct3_ex [2:0] $end
   $var wire  3 Z funct3_id [2:0] $end
   $var wire  7 o funct7_ex [6:0] $end
   $var wire  7 [ funct7_id [6:0] $end
   $var wire  2 w id_ForwardA [1:0] $end
   $var wire  2 x id_ForwardB [1:0] $end
   $var wire 32 + imm_ex [31:0] $end
   $var wire 32 h imm_id [31:0] $end
   $var wire 32 i imm_shifted [31:0] $end
   $var wire 32 d! inst [31:0] $end
   $var wire 32 X inst_id [31:0] $end
   $var wire 32 % inst_if [31:0] $end
   $var wire 32 e! instruction_ex [31:0] $end
   $var wire  1 y is_branch_id $end
   $var wire  1 0 is_jalr_flag $end
   $var wire  1 . is_jump_flag $end
   $var wire  2 1 jalr_PC_Sel [1:0] $end
   $var wire  2 / jump_PC_Sel [1:0] $end
   $var wire 32 6 memRdata_wb [31:0] $end
   $var wire  1 j memRead_ex $end
   $var wire  1 _ memRead_id $end
   $var wire  1 ~ memRead_mem $end
   $var wire  1 k memWrite_ex $end
   $var wire  1 ` memWrite_id $end
   $var wire  1 !! memWrite_mem $end
   $var wire  2 p memtoReg_ex [1:0] $end
   $var wire  2 c memtoReg_id [1:0] $end
   $var wire  2 #! memtoReg_mem [1:0] $end
   $var wire  2 '! memtoReg_wb [1:0] $end
   $var wire 32 z mux_ALU_input [31:0] $end
   $var wire  7 Y opcode_id [6:0] $end
   $var wire 32 ' pc_4_id [31:0] $end
   $var wire 32 $ pc_4_if [31:0] $end
   $var wire 32 7 pc_4_wb [31:0] $end
   $var wire 32 a! pc_branch [31:0] $end
   $var wire 32 ( pc_ex [31:0] $end
   $var wire 32 \! pc_i [31:0] $end
   $var wire 32 & pc_id [31:0] $end
   $var wire 32 # pc_if [31:0] $end
   $var wire 32 f! pc_j_to [31:0] $end
   $var wire 32 _! pc_jump [31:0] $end
   $var wire 32 2 pc_mem [31:0] $end
   $var wire 32 [! pc_muxed [31:0] $end
   $var wire 32 4 pc_wb [31:0] $end
   $var wire 32 ;! r[0] [31:0] $end
   $var wire 32 E! r[10] [31:0] $end
   $var wire 32 F! r[11] [31:0] $end
   $var wire 32 G! r[12] [31:0] $end
   $var wire 32 H! r[13] [31:0] $end
   $var wire 32 I! r[14] [31:0] $end
   $var wire 32 J! r[15] [31:0] $end
   $var wire 32 K! r[16] [31:0] $end
   $var wire 32 L! r[17] [31:0] $end
   $var wire 32 M! r[18] [31:0] $end
   $var wire 32 N! r[19] [31:0] $end
   $var wire 32 <! r[1] [31:0] $end
   $var wire 32 O! r[20] [31:0] $end
   $var wire 32 P! r[21] [31:0] $end
   $var wire 32 Q! r[22] [31:0] $end
   $var wire 32 R! r[23] [31:0] $end
   $var wire 32 S! r[24] [31:0] $end
   $var wire 32 T! r[25] [31:0] $end
   $var wire 32 U! r[26] [31:0] $end
   $var wire 32 V! r[27] [31:0] $end
   $var wire 32 W! r[28] [31:0] $end
   $var wire 32 X! r[29] [31:0] $end
   $var wire 32 =! r[2] [31:0] $end
   $var wire 32 Y! r[30] [31:0] $end
   $var wire 32 Z! r[31] [31:0] $end
   $var wire 32 >! r[3] [31:0] $end
   $var wire 32 ?! r[4] [31:0] $end
   $var wire 32 @! r[5] [31:0] $end
   $var wire 32 A! r[6] [31:0] $end
   $var wire 32 B! r[7] [31:0] $end
   $var wire 32 C! r[8] [31:0] $end
   $var wire 32 D! r[9] [31:0] $end
   $var wire  5 (! rd [4:0] $end
   $var wire 32 5! readData1 [31:0] $end
   $var wire 32 ) readData1_ex [31:0] $end
   $var wire 32 3! readData1_muxed [31:0] $end
   $var wire 32 ^! readData2 [31:0] $end
   $var wire 32 * readData2_ex [31:0] $end
   $var wire 32 3 readData2_mem [31:0] $end
   $var wire 32 4! readData2_muxed [31:0] $end
   $var wire 32 `! readData_mem [31:0] $end
   $var wire  1 &! regWrite $end
   $var wire  1 m regWrite_ex $end
   $var wire  1 b regWrite_id $end
   $var wire  1 "! regWrite_mem $end
   $var wire  5 \ rs1 [4:0] $end
   $var wire  5 , rs1_ex [4:0] $end
   $var wire  5 ] rs2 [4:0] $end
   $var wire  5 - rs2_ex [4:0] $end
   $var wire  5 r rs_WB_ex [4:0] $end
   $var wire  5 ^ rs_WB_id [4:0] $end
   $var wire  5 $! rs_WB_mem [4:0] $end
   $var wire  1 :! rst_n $end
   $var wire  1 1! stall_if $end
   $var wire  1 :! start $end
   $var wire 32 g writeData [31:0] $end
   $var wire  1 } zero $end
   $scope module m_ALU $end
    $var wire 32 s A [31:0] $end
    $var wire 32 | ALUOut [31:0] $end
    $var wire  4 { ALUctl [3:0] $end
    $var wire 32 z B [31:0] $end
    $var wire  1 } zero $end
   $upscope $end
   $scope module m_ALUCtrl $end
    $var wire  4 { ALUCtl [3:0] $end
    $var wire  2 q ALUOp [1:0] $end
    $var wire  3 n funct3 [2:0] $end
    $var wire  7 o funct7 [6:0] $end
   $upscope $end
   $scope module m_Adder_1 $end
    $var wire 32 g! a [31:0] $end
    $var wire 32 # b [31:0] $end
    $var wire 32 $ sum [31:0] $end
   $upscope $end
   $scope module m_Adder_2 $end
    $var wire 32 b! a [31:0] $end
    $var wire 32 h b [31:0] $end
    $var wire 32 a! sum [31:0] $end
   $upscope $end
   $scope module m_Adder_pc_jump $end
    $var wire 32 ( a [31:0] $end
    $var wire 32 z b [31:0] $end
    $var wire 32 _! sum [31:0] $end
   $upscope $end
   $scope module m_Adder_pc_wb $end
    $var wire 32 g! a [31:0] $end
    $var wire 32 4 b [31:0] $end
    $var wire 32 7 sum [31:0] $end
   $upscope $end
   $scope module m_BranchComp $end
    $var wire 32 3! A [31:0] $end
    $var wire 32 4! B [31:0] $end
    $var wire  1 6! BrEq $end
    $var wire  1 7! BrLT $end
   $upscope $end
   $scope module m_DataMemory $end
    $var wire 32 %! address [31:0] $end
    $var wire  1 9! clk $end
    $var wire  1 ~ memRead $end
    $var wire  1 !! memWrite $end
    $var wire 32 `! readData [31:0] $end
    $var wire  1 :! rst $end
    $var wire 32 3 writeData [31:0] $end
   $upscope $end
   $scope module m_EX_MEM_Reg $end
    $var wire 32 | ALUOut_i [31:0] $end
    $var wire 32 %! ALUOut_o [31:0] $end
    $var wire  5 )! WB_M_control_i [4:0] $end
    $var wire  5 *! WB_M_control_o [4:0] $end
    $var wire  1 9! clk $end
    $var wire 32 t data_to_mem_i [31:0] $end
    $var wire 32 3 data_to_mem_o [31:0] $end
    $var wire 32 ( pc_i [31:0] $end
    $var wire 32 2 pc_o [31:0] $end
    $var wire  5 r rs_WB_i [4:0] $end
    $var wire  5 $! rs_WB_o [4:0] $end
    $var wire  1 :! rst $end
   $upscope $end
   $scope module m_ForwardingUnit $end
    $var wire  2 u ex_ForwardA [1:0] $end
    $var wire  2 v ex_ForwardB [1:0] $end
    $var wire  5 , ex_R1 [4:0] $end
    $var wire  5 - ex_R2 [4:0] $end
    $var wire  5 r ex_Rd [4:0] $end
    $var wire  1 m ex_RegWrite $end
    $var wire  2 w id_ForwardA [1:0] $end
    $var wire  2 x id_ForwardB [1:0] $end
    $var wire  5 \ id_R1 [4:0] $end
    $var wire  5 ] id_R2 [4:0] $end
    $var wire  1 y is_branch_id $end
    $var wire  1 ~ mem_MemRead $end
    $var wire  5 $! mem_Rd [4:0] $end
    $var wire  1 "! mem_RegWrite $end
    $var wire  5 (! wb_Rd [4:0] $end
    $var wire  1 &! wb_RegWrite $end
   $upscope $end
   $scope module m_HazardDetection $end
    $var wire  2 f Br_J_Sel [1:0] $end
    $var wire  2 0! Flush_HD [1:0] $end
    $var wire  2 2! PCSel [1:0] $end
    $var wire  1 ]! RePC $end
    $var wire  5 r ex_Rd [4:0] $end
    $var wire  5 \ id_R1 [4:0] $end
    $var wire  5 ] id_R2 [4:0] $end
    $var wire  1 0 is_jalr_flag $end
    $var wire  1 . is_jump_flag $end
    $var wire  1 j mem_MemRead $end
    $var wire  5 (! mem_Rd [4:0] $end
    $var wire  1 1! stall_if $end
   $upscope $end
   $scope module m_ID_EX_Reg $end
    $var wire  2 0! Flush_HD [1:0] $end
    $var wire 18 +! WB_M_EX_control_i [17:0] $end
    $var wire 18 ,! WB_M_EX_control_o [17:0] $end
    $var wire  1 9! clk $end
    $var wire 32 3! dataR1_i [31:0] $end
    $var wire 32 ) dataR1_o [31:0] $end
    $var wire 32 4! dataR2_i [31:0] $end
    $var wire 32 * dataR2_o [31:0] $end
    $var wire 32 h imm_i [31:0] $end
    $var wire 32 + imm_o [31:0] $end
    $var wire 32 X instruction_id_i [31:0] $end
    $var wire  1 0 is_jalr_flag $end
    $var wire  1 . is_jump_flag $end
    $var wire  2 1 jalr_PC_Sel [1:0] $end
    $var wire  2 / jump_PC_Sel [1:0] $end
    $var wire 32 & pc_i [31:0] $end
    $var wire 32 ( pc_o [31:0] $end
    $var wire  5 , rs1_ex_o [4:0] $end
    $var wire  5 - rs2_ex_o [4:0] $end
    $var wire  5 r rs_WB_o [4:0] $end
    $var wire  1 :! rst $end
   $upscope $end
   $scope module m_IF_ID_Reg $end
    $var wire  2 0! Flush_HD [1:0] $end
    $var wire  1 9! clk $end
    $var wire 32 % inst_i [31:0] $end
    $var wire 32 X inst_o [31:0] $end
    $var wire 32 $ pc_4_i [31:0] $end
    $var wire 32 ' pc_4_o [31:0] $end
    $var wire 32 # pc_i [31:0] $end
    $var wire 32 & pc_o [31:0] $end
    $var wire  1 :! rst $end
    $var wire  1 1! stall_if $end
   $upscope $end
   $scope module m_ImmGen $end
    $var wire 32 h imm [31:0] $end
    $var wire 32 X inst [31:0] $end
    $scope module unnamedblk1 $end
     $var wire  7 -! opcode [6:0] $end
    $upscope $end
   $upscope $end
   $scope module m_InstMem $end
    $var wire 32 % inst [31:0] $end
    $var wire 32 # readAddr [31:0] $end
   $upscope $end
   $scope module m_MEM_WB_Reg $end
    $var wire 32 %! ALUOut_i [31:0] $end
    $var wire 32 5 ALUOut_o [31:0] $end
    $var wire  1 9! clk $end
    $var wire  3 .! control_i [2:0] $end
    $var wire  3 /! control_o [2:0] $end
    $var wire 32 `! data_R_i [31:0] $end
    $var wire 32 6 data_R_o [31:0] $end
    $var wire 32 2 pc_i [31:0] $end
    $var wire 32 4 pc_o [31:0] $end
    $var wire  5 $! rs_WB_i [4:0] $end
    $var wire  5 (! rs_WB_o [4:0] $end
    $var wire  1 :! rst $end
   $upscope $end
   $scope module m_Mux_ALU $end
    $var wire 32 z out [31:0] $end
    $var wire 32 t s0 [31:0] $end
    $var wire 32 + s1 [31:0] $end
    $var wire  1 l sel $end
    $var wire 32 h! size [31:0] $end
   $upscope $end
   $scope module m_Mux_Adder_src $end
    $var wire 32 b! out [31:0] $end
    $var wire 32 & s0 [31:0] $end
    $var wire 32 5! s1 [31:0] $end
    $var wire  1 e sel $end
    $var wire 32 h! size [31:0] $end
   $upscope $end
   $scope module m_Mux_PC $end
    $var wire 32 \! out [31:0] $end
    $var wire 32 $ s0 [31:0] $end
    $var wire 32 a! s1 [31:0] $end
    $var wire 32 | s2 [31:0] $end
    $var wire 32 _! s3 [31:0] $end
    $var wire  2 8! sel [1:0] $end
    $var wire 32 h! size [31:0] $end
   $upscope $end
   $scope module m_Mux_PC_Sel $end
    $var wire  2 c! out [1:0] $end
    $var wire  2 2! s0 [1:0] $end
    $var wire  2 / s1 [1:0] $end
    $var wire  1 . sel $end
    $var wire 32 i! size [31:0] $end
   $upscope $end
   $scope module m_Mux_PC_Sel_final $end
    $var wire  2 8! out [1:0] $end
    $var wire  2 c! s0 [1:0] $end
    $var wire  2 1 s1 [1:0] $end
    $var wire  1 0 sel $end
    $var wire 32 i! size [31:0] $end
   $upscope $end
   $scope module m_Mux_PC_Stall $end
    $var wire 32 [! out [31:0] $end
    $var wire 32 \! s0 [31:0] $end
    $var wire 32 # s1 [31:0] $end
    $var wire  1 ]! sel $end
    $var wire 32 h! size [31:0] $end
   $upscope $end
   $scope module m_Mux_RF_EX_ForwardA $end
    $var wire 32 3! out [31:0] $end
    $var wire 32 5! s0 [31:0] $end
    $var wire 32 | s1 [31:0] $end
    $var wire 32 %! s2 [31:0] $end
    $var wire  2 w sel [1:0] $end
    $var wire 32 h! size [31:0] $end
   $upscope $end
   $scope module m_Mux_RF_EX_ForwardB $end
    $var wire 32 4! out [31:0] $end
    $var wire 32 ^! s0 [31:0] $end
    $var wire 32 | s1 [31:0] $end
    $var wire 32 %! s2 [31:0] $end
    $var wire  2 x sel [1:0] $end
    $var wire 32 h! size [31:0] $end
   $upscope $end
   $scope module m_Mux_RS1E $end
    $var wire 32 s out [31:0] $end
    $var wire 32 ) s0 [31:0] $end
    $var wire 32 g s1 [31:0] $end
    $var wire 32 %! s2 [31:0] $end
    $var wire  2 u sel [1:0] $end
    $var wire 32 h! size [31:0] $end
   $upscope $end
   $scope module m_Mux_RS2E $end
    $var wire 32 t out [31:0] $end
    $var wire 32 * s0 [31:0] $end
    $var wire 32 g s1 [31:0] $end
    $var wire 32 %! s2 [31:0] $end
    $var wire  2 v sel [1:0] $end
    $var wire 32 h! size [31:0] $end
   $upscope $end
   $scope module m_Mux_WriteData $end
    $var wire 32 g out [31:0] $end
    $var wire 32 5 s0 [31:0] $end
    $var wire 32 6 s1 [31:0] $end
    $var wire 32 7 s2 [31:0] $end
    $var wire  2 '! sel [1:0] $end
    $var wire 32 h! size [31:0] $end
   $upscope $end
   $scope module m_PC $end
    $var wire  1 9! clk $end
    $var wire 32 [! pc_i [31:0] $end
    $var wire 32 # pc_o [31:0] $end
    $var wire  1 :! rst $end
   $upscope $end
   $scope module m_Register $end
    $var wire  1 9! clk $end
    $var wire 32 5! readData1 [31:0] $end
    $var wire 32 ^! readData2 [31:0] $end
    $var wire  5 \ readReg1 [4:0] $end
    $var wire  5 ] readReg2 [4:0] $end
    $var wire  1 &! regWrite $end
    $var wire 32 8 regs[0] [31:0] $end
    $var wire 32 B regs[10] [31:0] $end
    $var wire 32 C regs[11] [31:0] $end
    $var wire 32 D regs[12] [31:0] $end
    $var wire 32 E regs[13] [31:0] $end
    $var wire 32 F regs[14] [31:0] $end
    $var wire 32 G regs[15] [31:0] $end
    $var wire 32 H regs[16] [31:0] $end
    $var wire 32 I regs[17] [31:0] $end
    $var wire 32 J regs[18] [31:0] $end
    $var wire 32 K regs[19] [31:0] $end
    $var wire 32 9 regs[1] [31:0] $end
    $var wire 32 L regs[20] [31:0] $end
    $var wire 32 M regs[21] [31:0] $end
    $var wire 32 N regs[22] [31:0] $end
    $var wire 32 O regs[23] [31:0] $end
    $var wire 32 P regs[24] [31:0] $end
    $var wire 32 Q regs[25] [31:0] $end
    $var wire 32 R regs[26] [31:0] $end
    $var wire 32 S regs[27] [31:0] $end
    $var wire 32 T regs[28] [31:0] $end
    $var wire 32 U regs[29] [31:0] $end
    $var wire 32 : regs[2] [31:0] $end
    $var wire 32 V regs[30] [31:0] $end
    $var wire 32 W regs[31] [31:0] $end
    $var wire 32 ; regs[3] [31:0] $end
    $var wire 32 < regs[4] [31:0] $end
    $var wire 32 = regs[5] [31:0] $end
    $var wire 32 > regs[6] [31:0] $end
    $var wire 32 ? regs[7] [31:0] $end
    $var wire 32 @ regs[8] [31:0] $end
    $var wire 32 A regs[9] [31:0] $end
    $var wire  1 :! rst $end
    $var wire 32 g writeData [31:0] $end
    $var wire  5 (! writeReg [4:0] $end
   $upscope $end
   $scope module m_ShiftLeftOne $end
    $var wire 32 h i [31:0] $end
    $var wire 32 i o [31:0] $end
   $upscope $end
   $scope module u_ctrl $end
    $var wire  2 d ALUOp [1:0] $end
    $var wire  1 a ALUSrc $end
    $var wire  1 6! BrEq $end
    $var wire  1 7! BrLT $end
    $var wire  2 f Br_J_Sel [1:0] $end
    $var wire  2 2! PCSel [1:0] $end
    $var wire  1 e PCorR1 $end
    $var wire  3 Z funct3 [2:0] $end
    $var wire  1 _ memRead $end
    $var wire  1 ` memWrite $end
    $var wire  2 c memtoReg [1:0] $end
    $var wire  7 Y opcode [6:0] $end
    $var wire  1 b regWrite $end
   $upscope $end
  $upscope $end
 $upscope $end
$enddefinitions $end


#0
b00000000000000000000000000000000 #
b00000000000000000000000000000100 $
b00000000010000000000011000010011 %
b00000000000000000000000000000000 &
b00000000000000000000000000000000 '
b00000000000000000000000000000000 (
b00000000000000000000000000000000 )
b00000000000000000000000000000000 *
b00000000000000000000000000000000 +
b00000 ,
b00000 -
0.
b00 /
00
b00 1
b00000000000000000000000000000000 2
b00000000000000000000000000000000 3
b00000000000000000000000000000000 4
b00000000000000000000000000000000 5
b00000000000000000000000000000000 6
b00000000000000000000000000000100 7
b00000000000000000000000000000000 8
b00000000000000000000000000000000 9
b00000000000000000000000000000000 :
b00000000000000000000000000000000 ;
b00000000000000000000000000000000 <
b00000000000000000000000000000000 =
b00000000000000000000000000000000 >
b00000000000000000000000000000000 ?
b00000000000000000000000000000000 @
b00000000000000000000000000000000 A
b00000000000000000000000000000000 B
b00000000000000000000000000000000 C
b00000000000000000000000000000000 D
b00000000000000000000000000000000 E
b00000000000000000000000000000000 F
b00000000000000000000000000000000 G
b00000000000000000000000000000000 H
b00000000000000000000000000000000 I
b00000000000000000000000000000000 J
b00000000000000000000000000000000 K
b00000000000000000000000000000000 L
b00000000000000000000000000000000 M
b00000000000000000000000000000000 N
b00000000000000000000000000000000 O
b00000000000000000000000000000000 P
b00000000000000000000000000000000 Q
b00000000000000000000000000000000 R
b00000000000000000000000000000000 S
b00000000000000000000000000000000 T
b00000000000000000000000000000000 U
b00000000000000000000000000000000 V
b00000000000000000000000000000000 W
b00000000000000000000000000000000 X
b0000000 Y
b000 Z
b0000000 [
b00000 \
b00000 ]
b00000 ^
0_
0`
0a
0b
b00 c
b00 d
0e
b00 f
b00000000000000000000000000000000 g
b00000000000000000000000000000000 h
b00000000000000000000000000000000 i
0j
0k
0l
0m
b000 n
b0000000 o
b00 p
b00 q
b00000 r
b00000000000000000000000000000000 s
b00000000000000000000000000000000 t
b00 u
b00 v
b00 w
b00 x
0y
b00000000000000000000000000000000 z
b0010 {
b00000000000000000000000000000000 |
1}
0~
0!!
0"!
b00 #!
b00000 $!
b00000000000000000000000000000000 %!
0&!
b00 '!
b00000 (!
b00000 )!
b00000 *!
b000000000000000000 +!
b000000000000000000 ,!
b0000000 -!
b000 .!
b000 /!
b00 0!
01!
b00 2!
b00000000000000000000000000000000 3!
b00000000000000000000000000000000 4!
b00000000000000000000000000000000 5!
16!
07!
b00 8!
09!
1:!
b00000000000000000000000000000000 ;!
b00000000000000000000000000000000 <!
b00000000000000000000000000000000 =!
b00000000000000000000000000000000 >!
b00000000000000000000000000000000 ?!
b00000000000000000000000000000000 @!
b00000000000000000000000000000000 A!
b00000000000000000000000000000000 B!
b00000000000000000000000000000000 C!
b00000000000000000000000000000000 D!
b00000000000000000000000000000000 E!
b00000000000000000000000000000000 F!
b00000000000000000000000000000000 G!
b00000000000000000000000000000000 H!
b00000000000000000000000000000000 I!
b00000000000000000000000000000000 J!
b00000000000000000000000000000000 K!
b00000000000000000000000000000000 L!
b00000000000000000000000000000000 M!
b00000000000000000000000000000000 N!
b00000000000000000000000000000000 O!
b00000000000000000000000000000000 P!
b00000000000000000000000000000000 Q!
b00000000000000000000000000000000 R!
b00000000000000000000000000000000 S!
b00000000000000000000000000000000 T!
b00000000000000000000000000000000 U!
b00000000000000000000000000000000 V!
b00000000000000000000000000000000 W!
b00000000000000000000000000000000 X!
b00000000000000000000000000000000 Y!
b00000000000000000000000000000000 Z!
b00000000000000000000000000000100 [!
b00000000000000000000000000000100 \!
0]!
b00000000000000000000000000000000 ^!
b00000000000000000000000000000000 _!
b00000000000000000000000000000000 `!
b00000000000000000000000000000000 a!
b00000000000000000000000000000000 b!
b00 c!
b00000000000000000000000000000000 d!
b00000000000000000000000000000000 e!
b00000000000000000000000000000000 f!
b00000000000000000000000000000100 g!
b00000000000000000000000000100000 h!
b00000000000000000000000000000010 i!
#1
b11 /
b10 1
b00000000000000000000000010000000 :
19!
0:!
b00000000000000000000000010000000 =!
#2
09!
1:!
#3
b00000000000000000000000000000100 #
b00000000000000000000000000001000 $
b00000000110000000000000011101111 %
b00000000000000000000000000000100 '
b00000000010000000000011000010011 X
b0010011 Y
b00100 ]
b01100 ^
1a
1b
b10 d
b00000000000000000000000000000100 h
b00000000000000000000000000001000 i
b100001100000000000 +!
b0010011 -!
19!
b00000000000000000000000000001000 [!
b00000000000000000000000000001000 \!
b00000000000000000000000000000100 a!
#4
09!
#5
b00000000000000000000000000001000 #
b00000000000000000000000000001100 $
b00000000010000000000000011101111 %
b00000000000000000000000000000100 &
b00000000000000000000000000001000 '
b00000000000000000000000000000100 +
b00100 -
b00000000110000000000000011101111 X
b1101111 Y
b01100 ]
b00001 ^
b10 c
b00 d
b10 f
b00000000000000000000000000001100 h
b00000000000000000000000000011000 i
1l
1m
b10 q
b01100 r
b00000000000000000000000000000100 z
b00000000000000000000000000000100 |
0}
b10000 )!
b110001000000000000 +!
b100001100000000000 ,!
b1101111 -!
19!
b00000000000000000000000000001100 [!
b00000000000000000000000000001100 \!
b00000000000000000000000000000100 _!
b00000000000000000000000000010000 a!
b00000000000000000000000000000100 b!
#6
09!
#7
b00000000000000000000000000001100 #
b00000000000000000000000000010000 $
b00000000000000000000000001101111 %
b00000000000000000000000000001000 &
b00000000000000000000000000001100 '
b00000000000000000000000000000100 (
b00000000000000000000000000001100 +
b01100 -
1.
b00000000010000000000000011101111 X
b00100 ]
b00000000000000000000000000000100 h
b00000000000000000000000000001000 i
b10 p
b00 q
b00001 r
b00000000000000000000000000000100 t
b10 v
b00000000000000000000000000001100 z
b00000000000000000000000000001100 |
1"!
b01100 $!
b00000000000000000000000000000100 %!
b11000 )!
b10000 *!
b110001000000000000 ,!
b100 .!
b11 0!
b11 8!
19!
b00000000000000000000000000010000 [!
b00000000000000000000000000010000 \!
b00000000000000000000000000010000 _!
b00000000000000000000000000001100 a!
b00000000000000000000000000001000 b!
b11 c!
#8
09!
#9
b00000000000000000000000000010000 #
b00000000000000000000000000010100 $
b11111111010000010000000100010011 %
b00000000000000000000000000000000 &
b00000000000000000000000000000000 '
b00000000000000000000000000000000 (
b00000000000000000000000000000000 +
b00000 -
0.
b00000000000000000000000000000100 2
b00000000000000000000000000000100 3
b00000000000000000000000000000100 5
b00000000000000000000000000000000 X
b0000000 Y
b00000 ]
b00000 ^
0a
0b
b00 c
b00 f
b00000000000000000000000000000100 g
b00000000000000000000000000000000 h
b00000000000000000000000000000000 i
0l
0m
b00 p
b00000 r
b00000000000000000000000000000000 t
b00 v
b00000000000000000000000000000000 z
b00000000000000000000000000000000 |
1}
b10 #!
b00001 $!
b00000000000000000000000000001100 %!
1&!
b01100 (!
b00000 )!
b11000 *!
b000000000000000000 +!
b000000000000000000 ,!
b0000000 -!
b110 .!
b100 /!
b00 0!
b00 8!
19!
b00000000000000000000000000010100 [!
b00000000000000000000000000010100 \!
b00000000000000000000000000000000 _!
b00000000000000000000000000000000 a!
b00000000000000000000000000000000 b!
b00 c!
#10
b00000000000000000000000000000100 D
09!
b00000000000000000000000000000100 G!
#11
b00000000000000000000000000010100 #
b00000000000000000000000000011000 $
b00000000000100010010010000100011 %
b00000000000000000000000000010000 &
b00000000000000000000000000010100 '
b00000000000000000000000000000000 2
b00000000000000000000000000000000 3
b00000000000000000000000000000100 4
b00000000000000000000000000001100 5
b00000000000000000000000000001000 7
b11111111010000010000000100010011 X
b0010011 Y
b1111111 [
b00010 \
b10100 ]
b00010 ^
1a
1b
b10 d
b00000000000000000000000000001000 g
b11111111111111111111111111110100 h
b11111111111111111111111111101000 i
0"!
b00 #!
b00000 $!
b00000000000000000000000000000000 %!
b10 '!
b00001 (!
b00000 *!
b100001100001111111 +!
b0010011 -!
b000 .!
b110 /!
b00000000000000000000000010000000 3!
b00000000000000000000000010000000 5!
06!
19!
b00000000000000000000000000011000 [!
b00000000000000000000000000011000 \!
b00000000000000000000000000000100 a!
b00000000000000000000000000010000 b!
#12
b00000000000000000000000000001000 9
09!
b00000000000000000000000000001000 <!
#13
b00000000000000000000000000011000 #
b00000000000000000000000000011100 $
b00000000100000010010001000100011 %
b00000000000000000000000000010100 &
b00000000000000000000000000011000 '
b00000000000000000000000000010000 (
b00000000000000000000000010000000 )
b11111111111111111111111111110100 +
b00010 ,
b10100 -
b00000000000000000000000000000000 4
b00000000000000000000000000000000 5
b00000000000000000000000000000100 7
b00000000000100010010010000100011 X
b0100011 Y
b010 Z
b0000000 [
b00001 ]
b01000 ^
1`
0b
b00 d
b00000000000000000000000000000000 g
b00000000000000000000000000001000 h
b00000000000000000000000000010000 i
1l
1m
b1111111 o
b10 q
b00010 r
b00000000000000000000000010000000 s
b11111111111111111111111111110100 z
b00000000000000000000000001110100 |
0}
0&!
b00 '!
b00000 (!
b10000 )!
b000011000100000000 +!
b100001100001111111 ,!
b0100011 -!
b000 /!
b00000000000000000000000000001000 4!
19!
b00000000000000000000000000011100 [!
b00000000000000000000000000011100 \!
b00000000000000000000000000001000 ^!
b00000000000000000000000000000100 _!
b00000000000000000000000000011100 a!
b00000000000000000000000000010100 b!
#14
09!
#15
b00000000000000000000000000011100 #
b00000000000000000000000000100000 $
b00000000000000000000010100010011 %
b00000000000000000000000000011000 &
b00000000000000000000000000011100 '
b00000000000000000000000000010100 (
b00000000000000000000000000001000 *
b00000000000000000000000000001000 +
b00001 -
b00000000000000000000000000010000 2
b00000000100000010010001000100011 X
b01000 ]
b00100 ^
b00000000000000000000000000000100 h
b00000000000000000000000000001000 i
1k
0m
b010 n
b0000000 o
b00 q
b01000 r
b00000000000000000000000001110100 s
b00000000000000000000000000001000 t
b10 u
b00000000000000000000000000001000 z
b00000000000000000000000001111100 |
1"!
b00010 $!
b00000000000000000000000001110100 %!
b00001 )!
b10000 *!
b000011000100000000 ,!
b100 .!
b00000000000000000000000000000000 4!
19!
b00000000000000000000000000100000 [!
b00000000000000000000000000100000 \!
b00000000000000000000000000000000 ^!
b00000000000000000000000000011100 _!
b00000000000000000000000000011000 b!
#16
09!
#17
b00000000000000000000000000100000 #
b00000000000000000000000000100100 $
b00000010000001100000011001100011 %
b00000000000000000000000000011100 &
b00000000000000000000000000100000 '
b00000000000000000000000000011000 (
b00000000000000000000000000000000 *
b00000000000000000000000000000100 +
b01000 -
b00000000000000000000000000010100 2
b00000000000000000000000000001000 3
b00000000000000000000000000010000 4
b00000000000000000000000001110100 5
b00000000000000000000000000010100 7
b00000000000000000000010100010011 X
b0010011 Y
b000 Z
b00000 \
b00000 ]
b01010 ^
0`
1b
b10 d
b00000000000000000000000001110100 g
b00000000000000000000000000000000 h
b00000000000000000000000000000000 i
b00100 r
b00000000000000000000000000000000 t
b01 u
b00000000000000000000000000000100 z
b00000000000000000000000001111000 |
1!!
0"!
b01000 $!
b00000000000000000000000001111100 %!
1&!
b00010 (!
b00001 *!
b100001100000000000 +!
b0010011 -!
b000 .!
b100 /!
b00000000000000000000000000000000 3!
b00000000000000000000000000000000 5!
16!
19!
b00000000000000000000000000100100 [!
b00000000000000000000000000100100 \!
b00000000000000000000000000011100 b!
#18
b00000000000000000000000001110100 :
09!
b00000000000000000000000001110100 =!
