Lab3/lab3_112550097/waveform.vcd
$version Generated by VerilatedVcd $end
$timescale 1s $end

 $scope module TOP $end
  $var wire  1 &! clk $end
  $var wire 32 (! r[0] [31:0] $end
  $var wire 32 2! r[10] [31:0] $end
  $var wire 32 3! r[11] [31:0] $end
  $var wire 32 4! r[12] [31:0] $end
  $var wire 32 5! r[13] [31:0] $end
  $var wire 32 6! r[14] [31:0] $end
  $var wire 32 7! r[15] [31:0] $end
  $var wire 32 8! r[16] [31:0] $end
  $var wire 32 9! r[17] [31:0] $end
  $var wire 32 :! r[18] [31:0] $end
  $var wire 32 ;! r[19] [31:0] $end
  $var wire 32 )! r[1] [31:0] $end
  $var wire 32 <! r[20] [31:0] $end
  $var wire 32 =! r[21] [31:0] $end
  $var wire 32 >! r[22] [31:0] $end
  $var wire 32 ?! r[23] [31:0] $end
  $var wire 32 @! r[24] [31:0] $end
  $var wire 32 A! r[25] [31:0] $end
  $var wire 32 B! r[26] [31:0] $end
  $var wire 32 C! r[27] [31:0] $end
  $var wire 32 D! r[28] [31:0] $end
  $var wire 32 E! r[29] [31:0] $end
  $var wire 32 *! r[2] [31:0] $end
  $var wire 32 F! r[30] [31:0] $end
  $var wire 32 G! r[31] [31:0] $end
  $var wire 32 +! r[3] [31:0] $end
  $var wire 32 ,! r[4] [31:0] $end
  $var wire 32 -! r[5] [31:0] $end
  $var wire 32 .! r[6] [31:0] $end
  $var wire 32 /! r[7] [31:0] $end
  $var wire 32 0! r[8] [31:0] $end
  $var wire 32 1! r[9] [31:0] $end
  $var wire  1 '! start $end
  $scope module PipelineCPU $end
   $var wire  4 g ALUCtl [3:0] $end
   $var wire  2 d ALUOp_ex [1:0] $end
   $var wire  2 X ALUOp_id [1:0] $end
   $var wire 32 "! ALUOut_ex [31:0] $end
   $var wire 32 %! ALUOut_mem [31:0] $end
   $var wire 32 q ALUOut_wb [31:0] $end
   $var wire  1 _ ALUSrc_ex $end
   $var wire  1 U ALUSrc_id $end
   $var wire  1 ~ BrEq $end
   $var wire  1 !! BrLT $end
   $var wire  2 { PCSel_id [1:0] $end
   $var wire  1 &! clk $end
   $var wire  3 a funct3_ex [2:0] $end
   $var wire  3 N funct3_id [2:0] $end
   $var wire  7 b funct7_ex [6:0] $end
   $var wire  7 O funct7_id [6:0] $end
   $var wire 32 & imm_ex [31:0] $end
   $var wire 32 Z imm_id [31:0] $end
   $var wire 32 [ imm_shifted [31:0] $end
   $var wire 32 J! inst [31:0] $end
   $var wire 32 L inst_id [31:0] $end
   $var wire 32 J inst_if [31:0] $end
   $var wire 32 r memRdata_wb [31:0] $end
   $var wire  1 ] memRead_ex $end
   $var wire  1 S memRead_id $end
   $var wire  1 $! memRead_mem $end
   $var wire  1 ^ memWrite_ex $end
   $var wire  1 T memWrite_id $end
   $var wire  1 i memWrite_mem $end
   $var wire  2 c memtoReg_ex [1:0] $end
   $var wire  2 W memtoReg_id [1:0] $end
   $var wire  2 k memtoReg_mem [1:0] $end
   $var wire  2 o memtoReg_wb [1:0] $end
   $var wire 32 f mux_ALU_input [31:0] $end
   $var wire  7 M opcode_id [6:0] $end
   $var wire 32 # pc_4_id [31:0] $end
   $var wire 32 I pc_4_if [31:0] $end
   $var wire 32 s pc_branch [31:0] $end
   $var wire 32 \ pc_ex [31:0] $end
   $var wire 32 H! pc_i [31:0] $end
   $var wire 32 K pc_id [31:0] $end
   $var wire 32 H pc_if [31:0] $end
   $var wire 32 K! pc_j_to [31:0] $end
   $var wire 32 h pc_mem [31:0] $end
   $var wire 32 m pc_wb [31:0] $end
   $var wire 32 (! r[0] [31:0] $end
   $var wire 32 2! r[10] [31:0] $end
   $var wire 32 3! r[11] [31:0] $end
   $var wire 32 4! r[12] [31:0] $end
   $var wire 32 5! r[13] [31:0] $end
   $var wire 32 6! r[14] [31:0] $end
   $var wire 32 7! r[15] [31:0] $end
   $var wire 32 8! r[16] [31:0] $end
   $var wire 32 9! r[17] [31:0] $end
   $var wire 32 :! r[18] [31:0] $end
   $var wire 32 ;! r[19] [31:0] $end
   $var wire 32 )! r[1] [31:0] $end
   $var wire 32 <! r[20] [31:0] $end
   $var wire 32 =! r[21] [31:0] $end
   $var wire 32 >! r[22] [31:0] $end
   $var wire 32 ?! r[23] [31:0] $end
   $var wire 32 @! r[24] [31:0] $end
   $var wire 32 A! r[25] [31:0] $end
   $var wire 32 B! r[26] [31:0] $end
   $var wire 32 C! r[27] [31:0] $end
   $var wire 32 D! r[28] [31:0] $end
   $var wire 32 E! r[29] [31:0] $end
   $var wire 32 *! r[2] [31:0] $end
   $var wire 32 F! r[30] [31:0] $end
   $var wire 32 G! r[31] [31:0] $end
   $var wire 32 +! r[3] [31:0] $end
   $var wire 32 ,! r[4] [31:0] $end
   $var wire 32 -! r[5] [31:0] $end
   $var wire 32 .! r[6] [31:0] $end
   $var wire 32 /! r[7] [31:0] $end
   $var wire 32 0! r[8] [31:0] $end
   $var wire 32 1! r[9] [31:0] $end
   $var wire  5 p rd [4:0] $end
   $var wire 32 | readData1 [31:0] $end
   $var wire 32 $ readData1_ex [31:0] $end
   $var wire 32 } readData2 [31:0] $end
   $var wire 32 % readData2_ex [31:0] $end
   $var wire 32 ' readData2_mem [31:0] $end
   $var wire 32 I! readData_mem [31:0] $end
   $var wire  1 n regWrite $end
   $var wire  1 ` regWrite_ex $end
   $var wire  1 V regWrite_id $end
   $var wire  1 j regWrite_mem $end
   $var wire  5 P rs1 [4:0] $end
   $var wire  5 Q rs2 [4:0] $end
   $var wire  5 e rs_WB_ex [4:0] $end
   $var wire  5 R rs_WB_id [4:0] $end
   $var wire  5 l rs_WB_mem [4:0] $end
   $var wire  1 '! rst_n $end
   $var wire  1 '! start $end
   $var wire 32 Y writeData [31:0] $end
   $var wire  1 #! zero $end
   $scope module m_ALU $end
    $var wire 32 $ A [31:0] $end
    $var wire 32 "! ALUOut [31:0] $end
    $var wire  4 g ALUctl [3:0] $end
    $var wire 32 f B [31:0] $end
    $var wire  1 #! zero $end
   $upscope $end
   $scope module m_ALUCtrl $end
    $var wire  4 g ALUCtl [3:0] $end
    $var wire  2 d ALUOp [1:0] $end
    $var wire  3 a funct3 [2:0] $end
    $var wire  7 b funct7 [6:0] $end
   $upscope $end
   $scope module m_Adder_1 $end
    $var wire 32 L! a [31:0] $end
    $var wire 32 H b [31:0] $end
    $var wire 32 I sum [31:0] $end
   $upscope $end
   $scope module m_Adder_2 $end
    $var wire 32 K a [31:0] $end
    $var wire 32 Z b [31:0] $end
    $var wire 32 s sum [31:0] $end
   $upscope $end
   $scope module m_BranchComp $end
    $var wire 32 | A [31:0] $end
    $var wire 32 } B [31:0] $end
    $var wire  1 ~ BrEq $end
    $var wire  1 !! BrLT $end
   $upscope $end
   $scope module m_DataMemory $end
    $var wire 32 %! address [31:0] $end
    $var wire  1 &! clk $end
    $var wire  1 $! memRead $end
    $var wire  1 i memWrite $end
    $var wire 32 I! readData [31:0] $end
    $var wire  1 '! rst $end
    $var wire 32 ' writeData [31:0] $end
   $upscope $end
   $scope module m_EX_MEM_Reg $end
    $var wire 32 "! ALUOut_i [31:0] $end
    $var wire 32 %! ALUOut_o [31:0] $end
    $var wire  5 t WB_M_control_i [4:0] $end
    $var wire  5 u WB_M_control_o [4:0] $end
    $var wire  1 &! clk $end
    $var wire 32 % data_to_mem_i [31:0] $end
    $var wire 32 ' data_to_mem_o [31:0] $end
    $var wire 32 \ pc_i [31:0] $end
    $var wire 32 h pc_o [31:0] $end
    $var wire  5 e rs_WB_i [4:0] $end
    $var wire  5 l rs_WB_o [4:0] $end
    $var wire  1 '! rst $end
   $upscope $end
   $scope module m_ID_EX_Reg $end
    $var wire 18 v WB_M_EX_control_i [17:0] $end
    $var wire 18 w WB_M_EX_control_o [17:0] $end
    $var wire  1 &! clk $end
    $var wire 32 | dataR1_i [31:0] $end
    $var wire 32 $ dataR1_o [31:0] $end
    $var wire 32 } dataR2_i [31:0] $end
    $var wire 32 % dataR2_o [31:0] $end
    $var wire 32 Z imm_i [31:0] $end
    $var wire 32 & imm_o [31:0] $end
    $var wire 32 K pc_i [31:0] $end
    $var wire 32 \ pc_o [31:0] $end
    $var wire  5 R rs_WB_i [4:0] $end
    $var wire  5 e rs_WB_o [4:0] $end
    $var wire  1 '! rst $end
   $upscope $end
   $scope module m_IF_ID_Reg $end
    $var wire  1 &! clk $end
    $var wire 32 J inst_i [31:0] $end
    $var wire 32 L inst_o [31:0] $end
    $var wire 32 I pc_4_i [31:0] $end
    $var wire 32 # pc_4_o [31:0] $end
    $var wire 32 H pc_i [31:0] $end
    $var wire 32 K pc_o [31:0] $end
    $var wire  1 '! rst $end
   $upscope $end
   $scope module m_ImmGen $end
    $var wire 32 Z imm [31:0] $end
    $var wire 32 L inst [31:0] $end
    $scope module unnamedblk1 $end
     $var wire  7 x opcode [6:0] $end
    $upscope $end
   $upscope $end
   $scope module m_InstMem $end
    $var wire 32 J inst [31:0] $end
    $var wire 32 H readAddr [31:0] $end
   $upscope $end
   $scope module m_MEM_WB_Reg $end
    $var wire 32 %! ALUOut_i [31:0] $end
    $var wire 32 q ALUOut_o [31:0] $end
    $var wire  1 &! clk $end
    $var wire  3 y control_i [2:0] $end
    $var wire  3 z control_o [2:0] $end
    $var wire 32 I! data_R_i [31:0] $end
    $var wire 32 r data_R_o [31:0] $end
    $var wire 32 h pc_i [31:0] $end
    $var wire 32 m pc_o [31:0] $end
    $var wire  5 l rs_WB_i [4:0] $end
    $var wire  5 p rs_WB_o [4:0] $end
    $var wire  1 '! rst $end
   $upscope $end
   $scope module m_Mux_ALU $end
    $var wire 32 f out [31:0] $end
    $var wire 32 % s0 [31:0] $end
    $var wire 32 & s1 [31:0] $end
    $var wire  1 _ sel $end
    $var wire 32 M! size [31:0] $end
   $upscope $end
   $scope module m_Mux_PC $end
    $var wire 32 H! out [31:0] $end
    $var wire 32 I s0 [31:0] $end
    $var wire 32 s s1 [31:0] $end
    $var wire 32 "! s2 [31:0] $end
    $var wire  2 { sel [1:0] $end
    $var wire 32 M! size [31:0] $end
   $upscope $end
   $scope module m_Mux_WriteData $end
    $var wire 32 Y out [31:0] $end
    $var wire 32 q s0 [31:0] $end
    $var wire 32 r s1 [31:0] $end
    $var wire 32 m s2 [31:0] $end
    $var wire  2 o sel [1:0] $end
    $var wire 32 M! size [31:0] $end
   $upscope $end
   $scope module m_PC $end
    $var wire  1 &! clk $end
    $var wire 32 H! pc_i [31:0] $end
    $var wire 32 H pc_o [31:0] $end
    $var wire  1 '! rst $end
   $upscope $end
   $scope module m_Register $end
    $var wire  1 &! clk $end
    $var wire 32 | readData1 [31:0] $end
    $var wire 32 } readData2 [31:0] $end
    $var wire  5 P readReg1 [4:0] $end
    $var wire  5 Q readReg2 [4:0] $end
    $var wire  1 n regWrite $end
    $var wire 32 ( regs[0] [31:0] $end
    $var wire 32 2 regs[10] [31:0] $end
    $var wire 32 3 regs[11] [31:0] $end
    $var wire 32 4 regs[12] [31:0] $end
    $var wire 32 5 regs[13] [31:0] $end
    $var wire 32 6 regs[14] [31:0] $end
    $var wire 32 7 regs[15] [31:0] $end
    $var wire 32 8 regs[16] [31:0] $end
    $var wire 32 9 regs[17] [31:0] $end
    $var wire 32 : regs[18] [31:0] $end
    $var wire 32 ; regs[19] [31:0] $end
    $var wire 32 ) regs[1] [31:0] $end
    $var wire 32 < regs[20] [31:0] $end
    $var wire 32 = regs[21] [31:0] $end
    $var wire 32 > regs[22] [31:0] $end
    $var wire 32 ? regs[23] [31:0] $end
    $var wire 32 @ regs[24] [31:0] $end
    $var wire 32 A regs[25] [31:0] $end
    $var wire 32 B regs[26] [31:0] $end
    $var wire 32 C regs[27] [31:0] $end
    $var wire 32 D regs[28] [31:0] $end
    $var wire 32 E regs[29] [31:0] $end
    $var wire 32 * regs[2] [31:0] $end
    $var wire 32 F regs[30] [31:0] $end
    $var wire 32 G regs[31] [31:0] $end
    $var wire 32 + regs[3] [31:0] $end
    $var wire 32 , regs[4] [31:0] $end
    $var wire 32 - regs[5] [31:0] $end
    $var wire 32 . regs[6] [31:0] $end
    $var wire 32 / regs[7] [31:0] $end
    $var wire 32 0 regs[8] [31:0] $end
    $var wire 32 1 regs[9] [31:0] $end
    $var wire  1 '! rst $end
    $var wire 32 Y writeData [31:0] $end
    $var wire  5 p writeReg [4:0] $end
   $upscope $end
   $scope module m_ShiftLeftOne $end
    $var wire 32 Z i [31:0] $end
    $var wire 32 [ o [31:0] $end
   $upscope $end
   $scope module u_ctrl $end
    $var wire  2 X ALUOp [1:0] $end
    $var wire  1 U ALUSrc $end
    $var wire  1 ~ BrEq $end
    $var wire  1 !! BrLT $end
    $var wire  2 { PCSel [1:0] $end
    $var wire  3 N funct3 [2:0] $end
    $var wire  1 S memRead $end
    $var wire  1 T memWrite $end
    $var wire  2 W memtoReg [1:0] $end
    $var wire  7 M opcode [6:0] $end
    $var wire  1 V regWrite $end
   $upscope $end
  $upscope $end
 $upscope $end
$enddefinitions $end


#0
b00000000000000000000000000000000 #
b00000000000000000000000000000000 $
b00000000000000000000000000000000 %
b00000000000000000000000000000000 &
b00000000000000000000000000000000 '
b00000000000000000000000000000000 (
b00000000000000000000000000000000 )
b00000000000000000000000000000000 *
b00000000000000000000000000000000 +
b00000000000000000000000000000000 ,
b00000000000000000000000000000000 -
b00000000000000000000000000000000 .
b00000000000000000000000000000000 /
b00000000000000000000000000000000 0
b00000000000000000000000000000000 1
b00000000000000000000000000000000 2
b00000000000000000000000000000000 3
b00000000000000000000000000000000 4
b00000000000000000000000000000000 5
b00000000000000000000000000000000 6
b00000000000000000000000000000000 7
b00000000000000000000000000000000 8
b00000000000000000000000000000000 9
b00000000000000000000000000000000 :
b00000000000000000000000000000000 ;
b00000000000000000000000000000000 <
b00000000000000000000000000000000 =
b00000000000000000000000000000000 >
b00000000000000000000000000000000 ?
b00000000000000000000000000000000 @
b00000000000000000000000000000000 A
b00000000000000000000000000000000 B
b00000000000000000000000000000000 C
b00000000000000000000000000000000 D
b00000000000000000000000000000000 E
b00000000000000000000000000000000 F
b00000000000000000000000000000000 G
b00000000000000000000000000000000 H
b00000000000000000000000000000100 I
b00000000111100000000001100010011 J
b00000000000000000000000000000000 K
b00000000000000000000000000000000 L
b0000000 M
b000 N
b0000000 O
b00000 P
b00000 Q
b00000 R
0S
0T
0U
0V
b00 W
b00 X
b00000000000000000000000000000000 Y
b00000000000000000000000000000000 Z
b00000000000000000000000000000000 [
b00000000000000000000000000000000 \
0]
0^
0_
0`
b000 a
b0000000 b
b00 c
b00 d
b00000 e
b00000000000000000000000000000000 f
b0010 g
b00000000000000000000000000000000 h
0i
0j
b00 k
b00000 l
b00000000000000000000000000000000 m
0n
b00 o
b00000 p
b00000000000000000000000000000000 q
b00000000000000000000000000000000 r
b00000000000000000000000000000000 s
b00000 t
b00000 u
b000000000000000000 v
b000000000000000000 w
b0000000 x
b000 y
b000 z
b00 {
b00000000000000000000000000000000 |
b00000000000000000000000000000000 }
1~
0!!
b00000000000000000000000000000000 "!
1#!
0$!
b00000000000000000000000000000000 %!
0&!
1'!
b00000000000000000000000000000000 (!
b00000000000000000000000000000000 )!
b00000000000000000000000000000000 *!
b00000000000000000000000000000000 +!
b00000000000000000000000000000000 ,!
b00000000000000000000000000000000 -!
b00000000000000000000000000000000 .!
b00000000000000000000000000000000 /!
b00000000000000000000000000000000 0!
b00000000000000000000000000000000 1!
b00000000000000000000000000000000 2!
b00000000000000000000000000000000 3!
b00000000000000000000000000000000 4!
b00000000000000000000000000000000 5!
b00000000000000000000000000000000 6!
b00000000000000000000000000000000 7!
b00000000000000000000000000000000 8!
b00000000000000000000000000000000 9!
b00000000000000000000000000000000 :!
b00000000000000000000000000000000 ;!
b00000000000000000000000000000000 <!
b00000000000000000000000000000000 =!
b00000000000000000000000000000000 >!
b00000000000000000000000000000000 ?!
b00000000000000000000000000000000 @!
b00000000000000000000000000000000 A!
b00000000000000000000000000000000 B!
b00000000000000000000000000000000 C!
b00000000000000000000000000000000 D!
b00000000000000000000000000000000 E!
b00000000000000000000000000000000 F!
b00000000000000000000000000000000 G!
b00000000000000000000000000000100 H!
b00000000000000000000000000000000 I!
b00000000000000000000000000000000 J!
b00000000000000000000000000000000 K!
b00000000000000000000000000000100 L!
b00000000000000000000000000100000 M!
#1
b00000000000000000000000010000000 *
1&!
0'!
b00000000000000000000000010000000 *!
#2
0&!
1'!
#3
b00000000000000000000000000000100 #
b00000000000000000000000000000100 H
b00000000000000000000000000001000 I
b00000000000000000000000000010011 J
b00000000111100000000001100010011 L
b0010011 M
b01111 Q
b00110 R
1U
1V
b10 X
b00000000000000000000000000001111 Z
b00000000000000000000000000011110 [
b00000000000000000000000000001111 s
b100001100000000000 v
b0010011 x
1&!
b00000000000000000000000000001000 H!
#4
0&!
#5
b00000000000000000000000000001000 #
b00000000000000000000000000001111 &
b00000000000000000000000000001000 H
b00000000000000000000000000001100 I
b00000000000000000000000000000100 K
b00000000000000000000000000010011 L
b00000 Q
b00000 R
b00000000000000000000000000000000 Z
b00000000000000000000000000000000 [
1_
1`
b10 d
b00110 e
b00000000000000000000000000001111 f
b00000000000000000000000000000100 s
b10000 t
b100001100000000000 w
b00000000000000000000000000001111 "!
0#!
1&!
b00000000000000000000000000001100 H!
#6
0&!
#7
b00000000000000000000000000001100 #
b00000000000000000000000000000000 &
b00000000000000000000000000001100 H
b00000000000000000000000000010000 I
b00000000000000000000000000001000 K
b00000000000000000000000000000100 \
b00000 e
b00000000000000000000000000000000 f
1j
b00110 l
b00000000000000000000000000001000 s
b10000 u
b100 y
b00000000000000000000000000000000 "!
1#!
b00000000000000000000000000001111 %!
1&!
b00000000000000000000000000010000 H!
#8
0&!
#9
b00000000000000000000000000010000 #
b00000000000000000000000000010000 H
b00000000000000000000000000010100 I
b00000000000000000000000000001100 K
b00000000000000000000000000001111 Y
b00000000000000000000000000001000 \
b00000000000000000000000000000100 h
b00000 l
1n
b00110 p
b00000000000000000000000000001111 q
b00000000000000000000000000001100 s
b100 z
b00000000000000000000000000000000 %!
1&!
b00000000000000000000000000010100 H!
#10
b00000000000000000000000000001111 .
0&!
b00000000000000000000000000001111 .!
#11
b00000000000000000000000000010100 #
b00000000000000000000000000010100 H
b00000000000000000000000000011000 I
b00000000000000000000000000010000 K
b00000000000000000000000000000000 Y
b00000000000000000000000000001100 \
b00000000000000000000000000001000 h
b00000000000000000000000000000100 m
b00000 p
b00000000000000000000000000000000 q
b00000000000000000000000000010000 s
1&!
b00000000000000000000000000011000 H!
#12
0&!
#13
b00000000000000000000000000011000 #
b00000000000000000000000000011000 H
b00000000000000000000000000011100 I
b00000000101000110111001110010011 J
b00000000000000000000000000010100 K
b00000000000000000000000000010000 \
b00000000000000000000000000001100 h
b00000000000000000000000000001000 m
b00000000000000000000000000010100 s
1&!
b00000000000000000000000000011100 H!
#14
0&!
#15
b00000000000000000000000000011100 #
b00000000000000000000000000011100 H
b00000000000000000000000000100000 I
b00000000000100110110111000010011 J
b00000000000000000000000000011000 K
b00000000101000110111001110010011 L
b111 N
b00110 P
b01010 Q
b00111 R
b00000000000000000000000000001010 Z
b00000000000000000000000000010100 [
b00000000000000000000000000010100 \
b00000000000000000000000000010000 h
b00000000000000000000000000001100 m
b00000000000000000000000000100010 s
b100001101110000000 v
b00000000000000000000000000001111 |
0~
1&!
b00000000000000000000000000100000 H!
#16
0&!
#17
b00000000000000000000000000100000 #
b00000000000000000000000000001111 $
b00000000000000000000000000001010 &
b00000000000000000000000000100000 H
b00000000000000000000000000100100 I
b00000000000000000000000000010011 J
b00000000000000000000000000011100 K
b00000000000100110110111000010011 L
b110 N
b00001 Q
b11100 R
b00000000000000000000000000000001 Z
b00000000000000000000000000000010 [
b00000000000000000000000000011000 \
b111 a
b00111 e
b00000000000000000000000000001010 f
b0000 g
b00000000000000000000000000010100 h
b00000000000000000000000000010000 m
b00000000000000000000000000011101 s
b100001101100000000 v
b100001101110000000 w
b00000000000000000000000000001010 "!
0#!
1&!
b00000000000000000000000000100100 H!
#18
0&!
#19
b00000000000000000000000000100100 #
b00000000000000000000000000000001 &
b00000000000000000000000000100100 H
b00000000000000000000000000101000 I
b00000000000000000000000000100000 K
b00000000000000000000000000010011 L
b000 N
b00000 P
b00000 Q
b00000 R
b00000000000000000000000000000000 Z
b00000000000000000000000000000000 [
b00000000000000000000000000011100 \
b110 a
b11100 e
b00000000000000000000000000000001 f
b0001 g
b00000000000000000000000000011000 h
b00111 l
b00000000000000000000000000010100 m
b00000000000000000000000000100000 s
b100001100000000000 v
b100001101100000000 w
b00000000000000000000000000000000 |
1~
b00000000000000000000000000001111 "!
b00000000000000000000000000001010 %!
1&!
b00000000000000000000000000101000 H!
#20
0&!
#21
b00000000000000000000000000101000 #
b00000000000000000000000000000000 $
b00000000000000000000000000000000 &
b00000000000000000000000000101000 H
b00000000000000000000000000101100 I
b00000000000000000000000000100100 K
b00000000000000000000000000001010 Y
b00000000000000000000000000100000 \
b000 a
b00000 e
b00000000000000000000000000000000 f
b0010 g
b00000000000000000000000000011100 h
b11100 l
b00000000000000000000000000011000 m
b00111 p
b00000000000000000000000000001010 q
b00000000000000000000000000100100 s
b100001100000000000 w
b00000000000000000000000000000000 "!
1#!
b00000000000000000000000000001111 %!
1&!
b00000000000000000000000000101100 H!
#22
b00000000000000000000000000001010 /
0&!
b00000000000000000000000000001010 /!
#23
b00000000000000000000000000101100 #
b00000000000000000000000000101100 H
b00000000000000000000000000110000 I
b00000000000000000000000000101000 K
b00000000000000000000000000001111 Y
b00000000000000000000000000100100 \
b00000000000000000000000000100000 h
b00000 l
b00000000000000000000000000011100 m
b11100 p
b00000000000000000000000000001111 q
b00000000000000000000000000101000 s
b00000000000000000000000000000000 %!
1&!
b00000000000000000000000000110000 H!
#24
b00000000000000000000000000001111 D
0&!
b00000000000000000000000000001111 D!
#25
b00000000000000000000000000110000 #
b00000000000000000000000000110000 H
b00000000000000000000000000110100 I
b00000000000000000000000000101100 K
b00000000000000000000000000000000 Y
b00000000000000000000000000101000 \
b00000000000000000000000000100100 h
b00000000000000000000000000100000 m
b00000 p
b00000000000000000000000000000000 q
b00000000000000000000000000101100 s
1&!
b00000000000000000000000000110100 H!
#26
0&!
#27
b00000000000000000000000000110100 #
b00000000000000000000000000110100 H
b00000000000000000000000000111000 I
b00000000011100110010111010110011 J
b00000000000000000000000000110000 K
b00000000000000000000000000101100 \
b00000000000000000000000000101000 h
b00000000000000000000000000100100 m
b00000000000000000000000000110000 s
1&!
b00000000000000000000000000111000 H!
#28
0&!
#29
b00000000000000000000000000111000 #
b00000000000000000000000000111000 H
b00000000000000000000000000111100 I
b00000000111100111010111100010011 J
b00000000000000000000000000110100 K
b00000000011100110010111010110011 L
b0110011 M
b010 N
b00110 P
b00111 Q
b11101 R
0U
b00000000000000000000000000110000 \
b00000000000000000000000000101100 h
b00000000000000000000000000101000 m
b00000000000000000000000000110100 s
b100000100100000000 v
b0110011 x
b00000000000000000000000000001111 |
b00000000000000000000000000001010 }
0~
1&!
b00000000000000000000000000111100 H!
#30
0&!
#31
b00000000000000000000000000111100 #
b00000000000000000000000000001111 $
b00000000000000000000000000001010 %
b00000000000000000000000000111100 H
b00000000000000000000000001000000 I
b00000000000000000000000000000000 J
b00000000000000000000000000111000 K
b00000000111100111010111100010011 L
b0010011 M
b00111 P
b01111 Q
b11110 R
1U
b00000000000000000000000000001111 Z
b00000000000000000000000000011110 [
b00000000000000000000000000110100 \
0_
b010 a
b11101 e
b00000000000000000000000000001010 f
b0111 g
b00000000000000000000000000110000 h
b00000000000000000000000000101100 m
b00000000000000000000000001000111 s
b100001100100000000 v
b100000100100000000 w
b0010011 x
b00000000000000000000000000001010 |
b00000000000000000000000000000000 }
1&!
b00000000000000000000000001000000 H!
#32
0&!
#33
b00000000000000000000000001000000 #
b00000000000000000000000000001010 $
b00000000000000000000000000000000 %
b00000000000000000000000000001111 &
b00000000000000000000000000001010 '
b00000000000000000000000001000000 H
b00000000000000000000000001000100 I
b00000000000000000000000000111100 K
b00000000000000000000000000000000 L
b0000000 M
b000 N
b00000 P
b00000 Q
b00000 R
0U
0V
b00 X
b00000000000000000000000000000000 Z
b00000000000000000000000000000000 [
b00000000000000000000000000111000 \
1_
b11110 e
b00000000000000000000000000001111 f
b00000000000000000000000000110100 h
b11101 l
b00000000000000000000000000110000 m
b00000000000000000000000000111100 s
b000000000000000000 v
b100001100100000000 w
b0000000 x
b00000000000000000000000000000000 |
1~
b00000000000000000000000000000001 "!
0#!
1&!
b00000000000000000000000001000100 H!
#34
0&!
#35
b00000000000000000000000001000100 #
b00000000000000000000000000000000 $
b00000000000000000000000000000000 &
b00000000000000000000000000000000 '
b00000000000000000000000001000100 H
b00000000000000000000000001001000 I
b00000000000000000000000001000000 K
b00000000000000000000000000111100 \
0_
0`
b000 a
b00 d
b00000 e
b00000000000000000000000000000000 f
b0010 g
b00000000000000000000000000111000 h
b11110 l
b00000000000000000000000000110100 m
b11101 p
b00000000000000000000000001000000 s
b00000 t
b000000000000000000 w
b00000000000000000000000000000000 "!
1#!
b00000000000000000000000000000001 %!
1&!
b00000000000000000000000001001000 H!
#36
0&!
#37
b00000000000000000000000001001000 #
b00000000000000000000000001001000 H
b00000000000000000000000001001100 I
b00000000000000000000000001000100 K
b00000000000000000000000000000001 Y
b00000000000000000000000001000000 \
b00000000000000000000000000111100 h
0j
b00000 l
b00000000000000000000000000111000 m
b11110 p
b00000000000000000000000000000001 q
b00000000000000000000000001000100 s
b00000 u
b000 y
b00000000000000000000000000000000 %!
1&!
b00000000000000000000000001001100 H!
#38
b00000000000000000000000000000001 F
0&!
b00000000000000000000000000000001 F!
#39
b00000000000000000000000001001100 #
b00000000000000000000000001001100 H
b00000000000000000000000001010000 I
b00000000000000000000000001001000 K
b00000000000000000000000000000000 Y
b00000000000000000000000001000100 \
b00000000000000000000000001000000 h
b00000000000000000000000000111100 m
0n
b00000 p
b00000000000000000000000000000000 q
b00000000000000000000000001001000 s
b000 z
1&!
b00000000000000000000000001010000 H!
#40
0&!
#41
b00000000000000000000000001010000 #
b00000000000000000000000001010000 H
b00000000000000000000000001010100 I
b00000000000000000000000001001100 K
b00000000000000000000000001001000 \
b00000000000000000000000001000100 h
b00000000000000000000000001000000 m
b00000000000000000000000001001100 s
1&!
b00000000000000000000000001010100 H!
#42
0&!
#43
b00000000000000000000000001010100 #
b00000000000000000000000001010100 H
b00000000000000000000000001011000 I
b00000000000000000000000001010000 K
b00000000000000000000000001001100 \
b00000000000000000000000001001000 h
b00000000000000000000000001000100 m
b00000000000000000000000001010000 s
1&!
b00000000000000000000000001011000 H!
#44
0&!
#45
b00000000000000000000000001011000 #
b00000000000000000000000001011000 H
b00000000000000000000000001011100 I
b00000000000000000000000001010100 K
b00000000000000000000000001010000 \
b00000000000000000000000001001100 h
b00000000000000000000000001001000 m
b00000000000000000000000001010100 s
1&!
b00000000000000000000000001011100 H!
#46
0&!
#47
b00000000000000000000000001011100 #
b00000000000000000000000001011100 H
b00000000000000000000000001100000 I
b00000000000000000000000001011000 K
b00000000000000000000000001010100 \
b00000000000000000000000001010000 h
b00000000000000000000000001001100 m
b00000000000000000000000001011000 s
1&!
b00000000000000000000000001100000 H!
#48
0&!
#49
b00000000000000000000000001100000 #
b00000000000000000000000001100000 H
b00000000000000000000000001100100 I
b00000000000000000000000001011100 K
b00000000000000000000000001011000 \
b00000000000000000000000001010100 h
b00000000000000000000000001010000 m
b00000000000000000000000001011100 s
1&!
b00000000000000000000000001100100 H!
#50
0&!
#51
b00000000000000000000000001100100 #
b00000000000000000000000001100100 H
b00000000000000000000000001101000 I
b00000000000000000000000001100000 K
b00000000000000000000000001011100 \
b00000000000000000000000001011000 h
b00000000000000000000000001010100 m
b00000000000000000000000001100000 s
1&!
b00000000000000000000000001101000 H!
#52
0&!
#53
b00000000000000000000000001101000 #
b00000000000000000000000001101000 H
b00000000000000000000000001101100 I
b00000000000000000000000001100100 K
b00000000000000000000000001100000 \
b00000000000000000000000001011100 h
b00000000000000000000000001011000 m
b00000000000000000000000001100100 s
1&!
b00000000000000000000000001101100 H!
#54
0&!
#55
b00000000000000000000000001101100 #
b00000000000000000000000001101100 H
b00000000000000000000000001110000 I
b00000000000000000000000001101000 K
b00000000000000000000000001100100 \
b00000000000000000000000001100000 h
b00000000000000000000000001011100 m
b00000000000000000000000001101000 s
1&!
b00000000000000000000000001110000 H!
#56
0&!
#57
b00000000000000000000000001110000 #
b00000000000000000000000001110000 H
b00000000000000000000000001110100 I
b00000000000000000000000001101100 K
b00000000000000000000000001101000 \
b00000000000000000000000001100100 h
b00000000000000000000000001100000 m
b00000000000000000000000001101100 s
1&!
b00000000000000000000000001110100 H!
#58
0&!
#59
b00000000000000000000000001110100 #
b00000000000000000000000001110100 H
b00000000000000000000000001111000 I
b00000000000000000000000001110000 K
b00000000000000000000000001101100 \
b00000000000000000000000001101000 h
b00000000000000000000000001100100 m
b00000000000000000000000001110000 s
1&!
b00000000000000000000000001111000 H!
#60
0&!
#61
b00000000000000000000000001111000 #
b00000000000000000000000001111000 H
b00000000000000000000000001111100 I
b00000000000000000000000001110100 K
b00000000000000000000000001110000 \
b00000000000000000000000001101100 h
b00000000000000000000000001101000 m
b00000000000000000000000001110100 s
1&!
b00000000000000000000000001111100 H!
#62
0&!
#63
b00000000000000000000000001111100 #
b00000000000000000000000001111100 H
b00000000000000000000000010000000 I
b00000000000000000000000001111000 K
b00000000000000000000000001110100 \
b00000000000000000000000001110000 h
b00000000000000000000000001101100 m
b00000000000000000000000001111000 s
1&!
b00000000000000000000000010000000 H!
#64
0&!
