Lab2/lab2_112550097/waveform.vcd
$version Generated by VerilatedVcd $end
$timescale 1s $end

 $scope module TOP $end
  $var wire  1 ` clk $end
  $var wire 32 b r[0] [31:0] $end
  $var wire 32 l r[10] [31:0] $end
  $var wire 32 m r[11] [31:0] $end
  $var wire 32 n r[12] [31:0] $end
  $var wire 32 o r[13] [31:0] $end
  $var wire 32 p r[14] [31:0] $end
  $var wire 32 q r[15] [31:0] $end
  $var wire 32 r r[16] [31:0] $end
  $var wire 32 s r[17] [31:0] $end
  $var wire 32 t r[18] [31:0] $end
  $var wire 32 u r[19] [31:0] $end
  $var wire 32 c r[1] [31:0] $end
  $var wire 32 v r[20] [31:0] $end
  $var wire 32 w r[21] [31:0] $end
  $var wire 32 x r[22] [31:0] $end
  $var wire 32 y r[23] [31:0] $end
  $var wire 32 z r[24] [31:0] $end
  $var wire 32 { r[25] [31:0] $end
  $var wire 32 | r[26] [31:0] $end
  $var wire 32 } r[27] [31:0] $end
  $var wire 32 ~ r[28] [31:0] $end
  $var wire 32 !! r[29] [31:0] $end
  $var wire 32 d r[2] [31:0] $end
  $var wire 32 "! r[30] [31:0] $end
  $var wire 32 #! r[31] [31:0] $end
  $var wire 32 e r[3] [31:0] $end
  $var wire 32 f r[4] [31:0] $end
  $var wire 32 g r[5] [31:0] $end
  $var wire 32 h r[6] [31:0] $end
  $var wire 32 i r[7] [31:0] $end
  $var wire 32 j r[8] [31:0] $end
  $var wire 32 k r[9] [31:0] $end
  $var wire  1 a start $end
  $scope module SingleCycleCPU $end
   $var wire  4 2 ALUCtl [3:0] $end
   $var wire  2 . ALUOp [1:0] $end
   $var wire 32 ^ ALUOut [31:0] $end
   $var wire  1 , ALUSrc $end
   $var wire  1 [ BrEq $end
   $var wire  1 \ BrLT $end
   $var wire  2 X PCSel [1:0] $end
   $var wire  1 ` clk $end
   $var wire  3 ' funct3 [2:0] $end
   $var wire  7 ( funct7 [6:0] $end
   $var wire 32 / imm [31:0] $end
   $var wire 32 0 imm_shifted [31:0] $end
   $var wire 32 % inst [31:0] $end
   $var wire  1 U memRead $end
   $var wire  1 + memWrite $end
   $var wire  2 - memtoReg [1:0] $end
   $var wire 32 ] mux_ALU_input [31:0] $end
   $var wire  7 & opcode [6:0] $end
   $var wire 32 $ pc_4_out [31:0] $end
   $var wire 32 1 pc_branch [31:0] $end
   $var wire 32 W pc_i [31:0] $end
   $var wire 32 &! pc_j_to [31:0] $end
   $var wire 32 # pc_o [31:0] $end
   $var wire 32 b r[0] [31:0] $end
   $var wire 32 l r[10] [31:0] $end
   $var wire 32 m r[11] [31:0] $end
   $var wire 32 n r[12] [31:0] $end
   $var wire 32 o r[13] [31:0] $end
   $var wire 32 p r[14] [31:0] $end
   $var wire 32 q r[15] [31:0] $end
   $var wire 32 r r[16] [31:0] $end
   $var wire 32 s r[17] [31:0] $end
   $var wire 32 t r[18] [31:0] $end
   $var wire 32 u r[19] [31:0] $end
   $var wire 32 c r[1] [31:0] $end
   $var wire 32 v r[20] [31:0] $end
   $var wire 32 w r[21] [31:0] $end
   $var wire 32 x r[22] [31:0] $end
   $var wire 32 y r[23] [31:0] $end
   $var wire 32 z r[24] [31:0] $end
   $var wire 32 { r[25] [31:0] $end
   $var wire 32 | r[26] [31:0] $end
   $var wire 32 } r[27] [31:0] $end
   $var wire 32 ~ r[28] [31:0] $end
   $var wire 32 !! r[29] [31:0] $end
   $var wire 32 d r[2] [31:0] $end
   $var wire 32 "! r[30] [31:0] $end
   $var wire 32 #! r[31] [31:0] $end
   $var wire 32 e r[3] [31:0] $end
   $var wire 32 f r[4] [31:0] $end
   $var wire 32 g r[5] [31:0] $end
   $var wire 32 h r[6] [31:0] $end
   $var wire 32 i r[7] [31:0] $end
   $var wire 32 j r[8] [31:0] $end
   $var wire 32 k r[9] [31:0] $end
   $var wire  5 T rd [4:0] $end
   $var wire 32 Y readData1 [31:0] $end
   $var wire 32 Z readData2 [31:0] $end
   $var wire 32 %! readData_mem [31:0] $end
   $var wire  1 V regWrite $end
   $var wire  5 ) rs1 [4:0] $end
   $var wire  5 * rs2 [4:0] $end
   $var wire  1 a rst_n $end
   $var wire  1 a start $end
   $var wire 32 $! writeData [31:0] $end
   $var wire  1 _ zero $end
   $scope module m_ALU $end
    $var wire 32 Y A [31:0] $end
    $var wire 32 ^ ALUOut [31:0] $end
    $var wire  4 2 ALUctl [3:0] $end
    $var wire 32 ] B [31:0] $end
    $var wire  1 _ zero $end
   $upscope $end
   $scope module m_ALUCtrl $end
    $var wire  4 2 ALUCtl [3:0] $end
    $var wire  2 . ALUOp [1:0] $end
    $var wire  3 ' funct3 [2:0] $end
    $var wire  7 ( funct7 [6:0] $end
   $upscope $end
   $scope module m_Adder_1 $end
    $var wire 32 '! a [31:0] $end
    $var wire 32 # b [31:0] $end
    $var wire 32 $ sum [31:0] $end
   $upscope $end
   $scope module m_Adder_2 $end
    $var wire 32 # a [31:0] $end
    $var wire 32 / b [31:0] $end
    $var wire 32 1 sum [31:0] $end
   $upscope $end
   $scope module m_BranchComp $end
    $var wire 32 Y A [31:0] $end
    $var wire 32 Z B [31:0] $end
    $var wire  1 [ BrEq $end
    $var wire  1 \ BrLT $end
   $upscope $end
   $scope module m_Control $end
    $var wire  2 . ALUOp [1:0] $end
    $var wire  1 , ALUSrc $end
    $var wire  1 [ BrEq $end
    $var wire  1 \ BrLT $end
    $var wire  2 X PCSel [1:0] $end
    $var wire  3 ' funct3 [2:0] $end
    $var wire  1 U memRead $end
    $var wire  1 + memWrite $end
    $var wire  2 - memtoReg [1:0] $end
    $var wire  7 & opcode [6:0] $end
    $var wire  1 V regWrite $end
   $upscope $end
   $scope module m_DataMemory $end
    $var wire 32 ^ address [31:0] $end
    $var wire  1 ` clk $end
    $var wire  1 U memRead $end
    $var wire  1 + memWrite $end
    $var wire 32 %! readData [31:0] $end
    $var wire  1 a rst $end
    $var wire 32 Z writeData [31:0] $end
   $upscope $end
   $scope module m_ImmGen $end
    $var wire 32 / imm [31:0] $end
    $var wire 32 % inst [31:0] $end
    $scope module unnamedblk1 $end
     $var wire  7 3 opcode [6:0] $end
    $upscope $end
   $upscope $end
   $scope module m_InstMem $end
    $var wire 32 % inst [31:0] $end
    $var wire 32 # readAddr [31:0] $end
   $upscope $end
   $scope module m_Mux_ALU $end
    $var wire 32 ] out [31:0] $end
    $var wire 32 Z s0 [31:0] $end
    $var wire 32 / s1 [31:0] $end
    $var wire  1 , sel $end
    $var wire 32 (! size [31:0] $end
   $upscope $end
   $scope module m_Mux_PC $end
    $var wire 32 W out [31:0] $end
    $var wire 32 $ s0 [31:0] $end
    $var wire 32 1 s1 [31:0] $end
    $var wire 32 ^ s2 [31:0] $end
    $var wire  2 X sel [1:0] $end
    $var wire 32 (! size [31:0] $end
   $upscope $end
   $scope module m_Mux_WriteData $end
    $var wire 32 $! out [31:0] $end
    $var wire 32 ^ s0 [31:0] $end
    $var wire 32 %! s1 [31:0] $end
    $var wire 32 $ s2 [31:0] $end
    $var wire  2 - sel [1:0] $end
    $var wire 32 (! size [31:0] $end
   $upscope $end
   $scope module m_PC $end
    $var wire  1 ` clk $end
    $var wire 32 W pc_i [31:0] $end
    $var wire 32 # pc_o [31:0] $end
    $var wire  1 a rst $end
   $upscope $end
   $scope module m_Register $end
    $var wire  1 ` clk $end
    $var wire 32 Y readData1 [31:0] $end
    $var wire 32 Z readData2 [31:0] $end
    $var wire  5 ) readReg1 [4:0] $end
    $var wire  5 * readReg2 [4:0] $end
    $var wire  1 V regWrite $end
    $var wire 32 4 regs[0] [31:0] $end
    $var wire 32 > regs[10] [31:0] $end
    $var wire 32 ? regs[11] [31:0] $end
    $var wire 32 @ regs[12] [31:0] $end
    $var wire 32 A regs[13] [31:0] $end
    $var wire 32 B regs[14] [31:0] $end
    $var wire 32 C regs[15] [31:0] $end
    $var wire 32 D regs[16] [31:0] $end
    $var wire 32 E regs[17] [31:0] $end
    $var wire 32 F regs[18] [31:0] $end
    $var wire 32 G regs[19] [31:0] $end
    $var wire 32 5 regs[1] [31:0] $end
    $var wire 32 H regs[20] [31:0] $end
    $var wire 32 I regs[21] [31:0] $end
    $var wire 32 J regs[22] [31:0] $end
    $var wire 32 K regs[23] [31:0] $end
    $var wire 32 L regs[24] [31:0] $end
    $var wire 32 M regs[25] [31:0] $end
    $var wire 32 N regs[26] [31:0] $end
    $var wire 32 O regs[27] [31:0] $end
    $var wire 32 P regs[28] [31:0] $end
    $var wire 32 Q regs[29] [31:0] $end
    $var wire 32 6 regs[2] [31:0] $end
    $var wire 32 R regs[30] [31:0] $end
    $var wire 32 S regs[31] [31:0] $end
    $var wire 32 7 regs[3] [31:0] $end
    $var wire 32 8 regs[4] [31:0] $end
    $var wire 32 9 regs[5] [31:0] $end
    $var wire 32 : regs[6] [31:0] $end
    $var wire 32 ; regs[7] [31:0] $end
    $var wire 32 < regs[8] [31:0] $end
    $var wire 32 = regs[9] [31:0] $end
    $var wire  1 a rst $end
    $var wire 32 $! writeData [31:0] $end
    $var wire  5 T writeReg [4:0] $end
   $upscope $end
   $scope module m_ShiftLeftOne $end
    $var wire 32 / i [31:0] $end
    $var wire 32 0 o [31:0] $end
   $upscope $end
  $upscope $end
 $upscope $end
$enddefinitions $end


#0
b00000000000000000000000000000000 #
b00000000000000000000000000000100 $
b00001010001100000000010000010011 %
b0010011 &
b000 '
b0000101 (
b00000 )
b00011 *
0+
1,
b00 -
b10 .
b00000000000000000000000010100011 /
b00000000000000000000000101000110 0
b00000000000000000000000010100011 1
b0010 2
b0010011 3
b00000000000000000000000000000000 4
b00000000000000000000000000000000 5
b00000000000000000000000000000000 6
b00000000000000000000000000000000 7
b00000000000000000000000000000000 8
b00000000000000000000000000000000 9
b00000000000000000000000000000000 :
b00000000000000000000000000000000 ;
b00000000000000000000000000000000 <
b00000000000000000000000000000000 =
b00000000000000000000000000000000 >
b00000000000000000000000000000000 ?
b00000000000000000000000000000000 @
b00000000000000000000000000000000 A
b00000000000000000000000000000000 B
b00000000000000000000000000000000 C
b00000000000000000000000000000000 D
b00000000000000000000000000000000 E
b00000000000000000000000000000000 F
b00000000000000000000000000000000 G
b00000000000000000000000000000000 H
b00000000000000000000000000000000 I
b00000000000000000000000000000000 J
b00000000000000000000000000000000 K
b00000000000000000000000000000000 L
b00000000000000000000000000000000 M
b00000000000000000000000000000000 N
b00000000000000000000000000000000 O
b00000000000000000000000000000000 P
b00000000000000000000000000000000 Q
b00000000000000000000000000000000 R
b00000000000000000000000000000000 S
b01000 T
0U
1V
b00000000000000000000000000000100 W
b00 X
b00000000000000000000000000000000 Y
b00000000000000000000000000000000 Z
1[
0\
b00000000000000000000000010100011 ]
b00000000000000000000000010100011 ^
0_
0`
1a
b00000000000000000000000000000000 b
b00000000000000000000000000000000 c
b00000000000000000000000000000000 d
b00000000000000000000000000000000 e
b00000000000000000000000000000000 f
b00000000000000000000000000000000 g
b00000000000000000000000000000000 h
b00000000000000000000000000000000 i
b00000000000000000000000000000000 j
b00000000000000000000000000000000 k
b00000000000000000000000000000000 l
b00000000000000000000000000000000 m
b00000000000000000000000000000000 n
b00000000000000000000000000000000 o
b00000000000000000000000000000000 p
b00000000000000000000000000000000 q
b00000000000000000000000000000000 r
b00000000000000000000000000000000 s
b00000000000000000000000000000000 t
b00000000000000000000000000000000 u
b00000000000000000000000000000000 v
b00000000000000000000000000000000 w
b00000000000000000000000000000000 x
b00000000000000000000000000000000 y
b00000000000000000000000000000000 z
b00000000000000000000000000000000 {
b00000000000000000000000000000000 |
b00000000000000000000000000000000 }
b00000000000000000000000000000000 ~
b00000000000000000000000000000000 !!
b00000000000000000000000000000000 "!
b00000000000000000000000000000000 #!
b00000000000000000000000010100011 $!
b00000000000000000000000000000000 %!
b00000000000000000000000000000000 &!
b00000000000000000000000000000100 '!
b00000000000000000000000000100000 (!
#1
b00000000000000000000000010000000 6
1`
0a
b00000000000000000000000010000000 d
#2
b00000000000000000000000010100011 <
0`
1a
b00000000000000000000000010100011 j
#3
b00000000000000000000000000000100 #
b00000000000000000000000000001000 $
b11111111110000010000000100010011 %
b1111111 (
b00010 )
b11100 *
b11111111111111111111111111111100 /
b11111111111111111111111111111000 0
b00000000000000000000000000000000 1
b00010 T
b00000000000000000000000000001000 W
b00000000000000000000000010000000 Y
0[
b11111111111111111111111111111100 ]
b00000000000000000000000001111100 ^
1`
b00000000000000000000000001111100 $!
#4
b00000000000000000000000001111100 6
b00000000000000000000000001111100 Y
b00000000000000000000000001111000 ^
0`
b00000000000000000000000001111100 d
b00000000000000000000000001111000 $!
#5
b00000000000000000000000000001000 #
b00000000000000000000000000001100 $
b00000000100000010010000000100011 %
b0100011 &
b010 '
b0000000 (
b01000 *
1+
b00 .
b00000000000000000000000000000000 /
b00000000000000000000000000000000 0
b00000000000000000000000000001000 1
b0100011 3
b00000 T
0V
b00000000000000000000000000001100 W
b00000000000000000000000010100011 Z
1\
b00000000000000000000000000000000 ]
b00000000000000000000000001111100 ^
1`
b00000000000000000000000001111100 $!
#6
0`
#7
b00000000000000000000000000001100 #
b00000000000000000000000000010000 $
b00000000000000000000010000110011 %
b0110011 &
b000 '
b00000 )
b00000 *
0+
0,
b10 .
b00000000000000000000000000001100 1
b0110011 3
b01000 T
1V
b00000000000000000000000000010000 W
b00000000000000000000000000000000 Y
b00000000000000000000000000000000 Z
1[
0\
b00000000000000000000000000000000 ^
1_
1`
b00000000000000000000000000000000 $!
#8
b00000000000000000000000000000000 <
0`
b00000000000000000000000000000000 j
#9
b00000000000000000000000000010000 #
b00000000000000000000000000010100 $
b00000000000000000000001010010011 %
b0010011 &
1,
b00000000000000000000000000010000 1
b0010011 3
b00101 T
b00000000000000000000000000010100 W
1`
#10
0`
#11
b00000000000000000000000000010100 #
b00000000000000000000000000011000 $
b00000000011100101010001100010011 %
b010 '
b00101 )
b00111 *
b00000000000000000000000000000111 /
b00000000000000000000000000001110 0
b00000000000000000000000000011011 1
b0111 2
b00110 T
b00000000000000000000000000011000 W
b00000000000000000000000000000111 ]
b00000000000000000000000000000001 ^
0_
1`
b00000000000000000000000000000001 $!
#12
b00000000000000000000000000000001 :
0`
b00000000000000000000000000000001 h
#13
b00000000000000000000000000011000 #
b00000000000000000000000000011100 $
b00000000000000110000011001100011 %
b1100011 &
b000 '
b00110 )
b00000 *
0,
b01 .
b00000000000000000000000000001100 /
b00000000000000000000000000011000 0
b00000000000000000000000000100100 1
b0110 2
b1100011 3
b01100 T
0V
b00000000000000000000000000011100 W
b00000000000000000000000000000001 Y
0[
b00000000000000000000000000000000 ]
1`
#14
0`
#15
b00000000000000000000000000011100 #
b00000000000000000000000000100000 $
b00000000000100101000001010010011 %
b0010011 &
b00101 )
b00001 *
1,
b10 .
b00000000000000000000000000000001 /
b00000000000000000000000000000010 0
b00000000000000000000000000011101 1
b0010 2
b0010011 3
b00101 T
1V
b00000000000000000000000000100000 W
b00000000000000000000000000000000 Y
1[
b00000000000000000000000000000001 ]
1`
#16
b00000000000000000000000000000001 9
b00000000000000000000000000000001 Y
0[
b00000000000000000000000000000010 ^
0`
b00000000000000000000000000000001 g
b00000000000000000000000000000010 $!
#17
b00000000000000000000000000100000 #
b00000000000000000000000000100100 $
b11111110000000000000101011100011 %
b1100011 &
b1111111 (
b00000 )
b00000 *
0,
b01 .
b11111111111111111111111111110100 /
b11111111111111111111111111101000 0
b00000000000000000000000000010100 1
b0110 2
b1100011 3
b10101 T
0V
b00000000000000000000000000010100 W
b01 X
b00000000000000000000000000000000 Y
1[
b00000000000000000000000000000000 ]
b00000000000000000000000000000000 ^
1_
1`
b00000000000000000000000000000000 $!
#18
0`
#19
b00000000000000000000000000010100 #
b00000000000000000000000000011000 $
b00000000011100101010001100010011 %
b0010011 &
b010 '
b0000000 (
b00101 )
b00111 *
1,
b10 .
b00000000000000000000000000000111 /
b00000000000000000000000000001110 0
b00000000000000000000000000011011 1
b0111 2
b0010011 3
b00110 T
1V
b00000000000000000000000000011000 W
b00 X
b00000000000000000000000000000001 Y
0[
b00000000000000000000000000000111 ]
b00000000000000000000000000000001 ^
0_
1`
b00000000000000000000000000000001 $!
#20
0`
#21
b00000000000000000000000000011000 #
b00000000000000000000000000011100 $
b00000000000000110000011001100011 %
b1100011 &
b000 '
b00110 )
b00000 *
0,
b01 .
b00000000000000000000000000001100 /
b00000000000000000000000000011000 0
b00000000000000000000000000100100 1
b0110 2
b1100011 3
b01100 T
0V
b00000000000000000000000000011100 W
b00000000000000000000000000000000 ]
1`
#22
0`
#23
b00000000000000000000000000011100 #
b00000000000000000000000000100000 $
b00000000000100101000001010010011 %
b0010011 &
b00101 )
b00001 *
1,
b10 .
b00000000000000000000000000000001 /
b00000000000000000000000000000010 0
b00000000000000000000000000011101 1
b0010 2
b0010011 3
b00101 T
1V
b00000000000000000000000000100000 W
b00000000000000000000000000000001 ]
b00000000000000000000000000000010 ^
1`
b00000000000000000000000000000010 $!
#24
b00000000000000000000000000000010 9
b00000000000000000000000000000010 Y
b00000000000000000000000000000011 ^
0`
b00000000000000000000000000000010 g
b00000000000000000000000000000011 $!
#25
b00000000000000000000000000100000 #
b00000000000000000000000000100100 $
b11111110000000000000101011100011 %
b1100011 &
b1111111 (
b00000 )
b00000 *
0,
b01 .
b11111111111111111111111111110100 /
b11111111111111111111111111101000 0
b00000000000000000000000000010100 1
b0110 2
b1100011 3
b10101 T
0V
b00000000000000000000000000010100 W
b01 X
b00000000000000000000000000000000 Y
1[
b00000000000000000000000000000000 ]
b00000000000000000000000000000000 ^
1_
1`
b00000000000000000000000000000000 $!
#26
0`
#27
b00000000000000000000000000010100 #
b00000000000000000000000000011000 $
b00000000011100101010001100010011 %
b0010011 &
b010 '
b0000000 (
b00101 )
b00111 *
1,
b10 .
b00000000000000000000000000000111 /
b00000000000000000000000000001110 0
b00000000000000000000000000011011 1
b0111 2
b0010011 3
b00110 T
1V
b00000000000000000000000000011000 W
b00 X
b00000000000000000000000000000010 Y
0[
b00000000000000000000000000000111 ]
b00000000000000000000000000000001 ^
0_
1`
b00000000000000000000000000000001 $!
#28
0`
#29
b00000000000000000000000000011000 #
b00000000000000000000000000011100 $
b00000000000000110000011001100011 %
b1100011 &
b000 '
b00110 )
b00000 *
0,
b01 .
b00000000000000000000000000001100 /
b00000000000000000000000000011000 0
b00000000000000000000000000100100 1
b0110 2
b1100011 3
b01100 T
0V
b00000000000000000000000000011100 W
b00000000000000000000000000000001 Y
b00000000000000000000000000000000 ]
1`
#30
0`
#31
b00000000000000000000000000011100 #
b00000000000000000000000000100000 $
b00000000000100101000001010010011 %
b0010011 &
b00101 )
b00001 *
1,
b10 .
b00000000000000000000000000000001 /
b00000000000000000000000000000010 0
b00000000000000000000000000011101 1
b0010 2
b0010011 3
b00101 T
1V
b00000000000000000000000000100000 W
b00000000000000000000000000000010 Y
b00000000000000000000000000000001 ]
b00000000000000000000000000000011 ^
1`
b00000000000000000000000000000011 $!
#32
b00000000000000000000000000000011 9
b00000000000000000000000000000011 Y
b00000000000000000000000000000100 ^
0`
b00000000000000000000000000000011 g
b00000000000000000000000000000100 $!
#33
b00000000000000000000000000100000 #
b00000000000000000000000000100100 $
b11111110000000000000101011100011 %
b1100011 &
b1111111 (
b00000 )
b00000 *
0,
b01 .
b11111111111111111111111111110100 /
b11111111111111111111111111101000 0
b00000000000000000000000000010100 1
b0110 2
b1100011 3
b10101 T
0V
b00000000000000000000000000010100 W
b01 X
b00000000000000000000000000000000 Y
1[
b00000000000000000000000000000000 ]
b00000000000000000000000000000000 ^
1_
1`
b00000000000000000000000000000000 $!
#34
0`
#35
b00000000000000000000000000010100 #
b00000000000000000000000000011000 $
b00000000011100101010001100010011 %
b0010011 &
b010 '
b0000000 (
b00101 )
b00111 *
1,
b10 .
b00000000000000000000000000000111 /
b00000000000000000000000000001110 0
b00000000000000000000000000011011 1
b0111 2
b0010011 3
b00110 T
1V
b00000000000000000000000000011000 W
b00 X
b00000000000000000000000000000011 Y
0[
b00000000000000000000000000000111 ]
b00000000000000000000000000000001 ^
0_
1`
b00000000000000000000000000000001 $!
#36
0`
#37
b00000000000000000000000000011000 #
b00000000000000000000000000011100 $
b00000000000000110000011001100011 %
b1100011 &
b000 '
b00110 )
b00000 *
0,
b01 .
b00000000000000000000000000001100 /
b00000000000000000000000000011000 0
b00000000000000000000000000100100 1
b0110 2
b1100011 3
b01100 T
0V
b00000000000000000000000000011100 W
b00000000000000000000000000000001 Y
b00000000000000000000000000000000 ]
1`
#38
0`
#39
b00000000000000000000000000011100 #
b00000000000000000000000000100000 $
b00000000000100101000001010010011 %
b0010011 &
b00101 )
b00001 *
1,
b10 .
b00000000000000000000000000000001 /
b00000000000000000000000000000010 0
b00000000000000000000000000011101 1
b0010 2
b0010011 3
b00101 T
1V
b00000000000000000000000000100000 W
b00000000000000000000000000000011 Y
b00000000000000000000000000000001 ]
b00000000000000000000000000000100 ^
1`
b00000000000000000000000000000100 $!
#40
b00000000000000000000000000000100 9
b00000000000000000000000000000100 Y
b00000000000000000000000000000101 ^
0`
b00000000000000000000000000000100 g
b00000000000000000000000000000101 $!
#41
b00000000000000000000000000100000 #
b00000000000000000000000000100100 $
b11111110000000000000101011100011 %
b1100011 &
b1111111 (
b00000 )
b00000 *
0,
b01 .
b11111111111111111111111111110100 /
b11111111111111111111111111101000 0
b00000000000000000000000000010100 1
b0110 2
b1100011 3
b10101 T
0V
b00000000000000000000000000010100 W
b01 X
b00000000000000000000000000000000 Y
1[
b00000000000000000000000000000000 ]
b00000000000000000000000000000000 ^
1_
1`
b00000000000000000000000000000000 $!
#42
0`
#43
b00000000000000000000000000010100 #
b00000000000000000000000000011000 $
b00000000011100101010001100010011 %
b0010011 &
b010 '
b0000000 (
b00101 )
b00111 *
1,
b10 .
b00000000000000000000000000000111 /
b00000000000000000000000000001110 0
b00000000000000000000000000011011 1
b0111 2
b0010011 3
b00110 T
1V
b00000000000000000000000000011000 W
b00 X
b00000000000000000000000000000100 Y
0[
b00000000000000000000000000000111 ]
b00000000000000000000000000000001 ^
0_
1`
b00000000000000000000000000000001 $!
#44
0`
#45
b00000000000000000000000000011000 #
b00000000000000000000000000011100 $
b00000000000000110000011001100011 %
b1100011 &
b000 '
b00110 )
b00000 *
0,
b01 .
b00000000000000000000000000001100 /
b00000000000000000000000000011000 0
b00000000000000000000000000100100 1
b0110 2
b1100011 3
b01100 T
0V
b00000000000000000000000000011100 W
b00000000000000000000000000000001 Y
b00000000000000000000000000000000 ]
1`
#46
0`
#47
b00000000000000000000000000011100 #
b00000000000000000000000000100000 $
b00000000000100101000001010010011 %
b0010011 &
b00101 )
b00001 *
1,
b10 .
b00000000000000000000000000000001 /
b00000000000000000000000000000010 0
b00000000000000000000000000011101 1
b0010 2
b0010011 3
b00101 T
1V
b00000000000000000000000000100000 W
b00000000000000000000000000000100 Y
b00000000000000000000000000000001 ]
b00000000000000000000000000000101 ^
1`
b00000000000000000000000000000101 $!
#48
b00000000000000000000000000000101 9
b00000000000000000000000000000101 Y
b00000000000000000000000000000110 ^
0`
b00000000000000000000000000000101 g
b00000000000000000000000000000110 $!
#49
b00000000000000000000000000100000 #
b00000000000000000000000000100100 $
b11111110000000000000101011100011 %
b1100011 &
b1111111 (
b00000 )
b00000 *
0,
b01 .
b11111111111111111111111111110100 /
b11111111111111111111111111101000 0
b00000000000000000000000000010100 1
b0110 2
b1100011 3
b10101 T
0V
b00000000000000000000000000010100 W
b01 X
b00000000000000000000000000000000 Y
1[
b00000000000000000000000000000000 ]
b00000000000000000000000000000000 ^
1_
1`
b00000000000000000000000000000000 $!
#50
0`
#51
b00000000000000000000000000010100 #
b00000000000000000000000000011000 $
b00000000011100101010001100010011 %
b0010011 &
b010 '
b0000000 (
b00101 )
b00111 *
1,
b10 .
b00000000000000000000000000000111 /
b00000000000000000000000000001110 0
b00000000000000000000000000011011 1
b0111 2
b0010011 3
b00110 T
1V
b00000000000000000000000000011000 W
b00 X
b00000000000000000000000000000101 Y
0[
b00000000000000000000000000000111 ]
b00000000000000000000000000000001 ^
0_
1`
b00000000000000000000000000000001 $!
#52
0`
#53
b00000000000000000000000000011000 #
b00000000000000000000000000011100 $
b00000000000000110000011001100011 %
b1100011 &
b000 '
b00110 )
b00000 *
0,
b01 .
b00000000000000000000000000001100 /
b00000000000000000000000000011000 0
b00000000000000000000000000100100 1
b0110 2
b1100011 3
b01100 T
0V
b00000000000000000000000000011100 W
b00000000000000000000000000000001 Y
b00000000000000000000000000000000 ]
1`
#54
0`
#55
b00000000000000000000000000011100 #
b00000000000000000000000000100000 $
b00000000000100101000001010010011 %
b0010011 &
b00101 )
b00001 *
1,
b10 .
b00000000000000000000000000000001 /
b00000000000000000000000000000010 0
b00000000000000000000000000011101 1
b0010 2
b0010011 3
b00101 T
1V
b00000000000000000000000000100000 W
b00000000000000000000000000000101 Y
b00000000000000000000000000000001 ]
b00000000000000000000000000000110 ^
1`
b00000000000000000000000000000110 $!
#56
b00000000000000000000000000000110 9
b00000000000000000000000000000110 Y
b00000000000000000000000000000111 ^
0`
b00000000000000000000000000000110 g
b00000000000000000000000000000111 $!
#57
b00000000000000000000000000100000 #
b00000000000000000000000000100100 $
b11111110000000000000101011100011 %
b1100011 &
b1111111 (
b00000 )
b00000 *
0,
b01 .
b11111111111111111111111111110100 /
b11111111111111111111111111101000 0
b00000000000000000000000000010100 1
b0110 2
b1100011 3
b10101 T
0V
b00000000000000000000000000010100 W
b01 X
b00000000000000000000000000000000 Y
1[
b00000000000000000000000000000000 ]
b00000000000000000000000000000000 ^
1_
1`
b00000000000000000000000000000000 $!
#58
0`
#59
b00000000000000000000000000010100 #
b00000000000000000000000000011000 $
b00000000011100101010001100010011 %
b0010011 &
b010 '
b0000000 (
b00101 )
b00111 *
1,
b10 .
b00000000000000000000000000000111 /
b00000000000000000000000000001110 0
b00000000000000000000000000011011 1
b0111 2
b0010011 3
b00110 T
1V
b00000000000000000000000000011000 W
b00 X
b00000000000000000000000000000110 Y
0[
b00000000000000000000000000000111 ]
b00000000000000000000000000000001 ^
0_
1`
b00000000000000000000000000000001 $!
#60
0`
#61
b00000000000000000000000000011000 #
b00000000000000000000000000011100 $
b00000000000000110000011001100011 %
b1100011 &
b000 '
b00110 )
b00000 *
0,
b01 .
b00000000000000000000000000001100 /
b00000000000000000000000000011000 0
b00000000000000000000000000100100 1
b0110 2
b1100011 3
b01100 T
0V
b00000000000000000000000000011100 W
b00000000000000000000000000000001 Y
b00000000000000000000000000000000 ]
1`
#62
0`
#63
b00000000000000000000000000011100 #
b00000000000000000000000000100000 $
b00000000000100101000001010010011 %
b0010011 &
b00101 )
b00001 *
1,
b10 .
b00000000000000000000000000000001 /
b00000000000000000000000000000010 0
b00000000000000000000000000011101 1
b0010 2
b0010011 3
b00101 T
1V
b00000000000000000000000000100000 W
b00000000000000000000000000000110 Y
b00000000000000000000000000000001 ]
b00000000000000000000000000000111 ^
1`
b00000000000000000000000000000111 $!
#64
b00000000000000000000000000000111 9
b00000000000000000000000000000111 Y
b00000000000000000000000000001000 ^
0`
b00000000000000000000000000000111 g
b00000000000000000000000000001000 $!
#65
b00000000000000000000000000100000 #
b00000000000000000000000000100100 $
b11111110000000000000101011100011 %
b1100011 &
b1111111 (
b00000 )
b00000 *
0,
b01 .
b11111111111111111111111111110100 /
b11111111111111111111111111101000 0
b00000000000000000000000000010100 1
b0110 2
b1100011 3
b10101 T
0V
b00000000000000000000000000010100 W
b01 X
b00000000000000000000000000000000 Y
1[
b00000000000000000000000000000000 ]
b00000000000000000000000000000000 ^
1_
1`
b00000000000000000000000000000000 $!
#66
0`
#67
b00000000000000000000000000010100 #
b00000000000000000000000000011000 $
b00000000011100101010001100010011 %
b0010011 &
b010 '
b0000000 (
b00101 )
b00111 *
1,
b10 .
b00000000000000000000000000000111 /
b00000000000000000000000000001110 0
b00000000000000000000000000011011 1
b0111 2
b0010011 3
b00110 T
1V
b00000000000000000000000000011000 W
b00 X
b00000000000000000000000000000111 Y
0[
b00000000000000000000000000000111 ]
1`
#68
b00000000000000000000000000000000 :
0`
b00000000000000000000000000000000 h
#69
b00000000000000000000000000011000 #
b00000000000000000000000000011100 $
b00000000000000110000011001100011 %
b1100011 &
b000 '
b00110 )
b00000 *
0,
b01 .
b00000000000000000000000000001100 /
b00000000000000000000000000011000 0
b00000000000000000000000000100100 1
b0110 2
b1100011 3
b01100 T
0V
b00000000000000000000000000100100 W
b01 X
b00000000000000000000000000000000 Y
1[
b00000000000000000000000000000000 ]
1`
#70
0`
#71
b00000000000000000000000000100100 #
b00000000000000000000000000101000 $
b00000000101000110110001100010011 %
b0010011 &
b110 '
b01010 *
1,
b10 .
b00000000000000000000000000001010 /
b00000000000000000000000000010100 0
b00000000000000000000000000101110 1
b0001 2
b0010011 3
b00110 T
1V
b00000000000000000000000000101000 W
b00 X
b00000000000000000000000000001010 ]
b00000000000000000000000000001010 ^
0_
1`
b00000000000000000000000000001010 $!
#72
b00000000000000000000000000001010 :
b00000000000000000000000000001010 Y
0[
0`
b00000000000000000000000000001010 h
#73
b00000000000000000000000000101000 #
b00000000000000000000000000101100 $
b00000000000000010010010000000011 %
b0000011 &
b010 '
b00010 )
b00000 *
b01 -
b00 .
b00000000000000000000000000000000 /
b00000000000000000000000000000000 0
b00000000000000000000000000101000 1
b0010 2
b0000011 3
b01000 T
1U
b00000000000000000000000000101100 W
b00000000000000000000000001111100 Y
b00000000000000000000000000000000 ]
b00000000000000000000000001111100 ^
1`
b00000000000000000000000010100011 $!
b00000000000000000000000010100011 %!
#74
b00000000000000000000000010100011 <
0`
b00000000000000000000000010100011 j
